%YAML 1.1
%TAG !u! tag:unity3d.com,2011:
--- !u!74 &7400000
AnimationClip:
  m_ObjectHideFlags: 0
  m_PrefabParentObject: {fileID: 0}
  m_PrefabInternal: {fileID: 0}
  m_Name: Boss_Hit2
  serializedVersion: 6
  m_Legacy: 0
  m_Compressed: 0
  m_UseHighQualityCurve: 1
  m_RotationCurves: []
  m_CompressedRotationCurves: []
  m_EulerCurves:
  - curve:
      serializedVersion: 2
      m_Curve:
      - time: 0
        value: {x: 0, y: 0, z: -52.316}
        inSlope: {x: 0, y: 0, z: 63.796005}
        outSlope: {x: 0, y: 0, z: 63.796005}
        tangentMode: 0
      - time: 0.25
        value: {x: 0, y: 0, z: -36.367}
        inSlope: {x: 0, y: 0, z: 0}
        outSlope: {x: 0, y: 0, z: 0}
        tangentMode: 0
      - time: 0.5
        value: {x: 0, y: 0, z: -52.316}
        inSlope: {x: 0, y: 0, z: -63.796005}
        outSlope: {x: 0, y: 0, z: -63.796005}
        tangentMode: 0
      m_PreInfinity: 2
      m_PostInfinity: 2
      m_RotationOrder: 4
    path: W_Vuln1
  - curve:
      serializedVersion: 2
      m_Curve:
      - time: 0
        value: {x: 0, y: 0, z: 106.51201}
        inSlope: {x: 0, y: 0, z: -34.544006}
        outSlope: {x: 0, y: 0, z: -34.544006}
        tangentMode: 0
      - time: 0.25
        value: {x: 0, y: 0, z: 97.87601}
        inSlope: {x: 0, y: 0, z: 0}
        outSlope: {x: 0, y: 0, z: 0}
        tangentMode: 0
      - time: 0.5
        value: {x: 0, y: 0, z: 106.51201}
        inSlope: {x: 0, y: 0, z: 34.544006}
        outSlope: {x: 0, y: 0, z: 34.544006}
        tangentMode: 0
      m_PreInfinity: 2
      m_PostInfinity: 2
      m_RotationOrder: 4
    path: W_Vuln1/wormsegment
  - curve:
      serializedVersion: 2
      m_Curve:
      - time: 0
        value: {x: 0, y: 0, z: 78.213005}
        inSlope: {x: 0, y: 0, z: 17.880005}
        outSlope: {x: 0, y: 0, z: 17.880005}
        tangentMode: 0
      - time: 0.25
        value: {x: 0, y: 0, z: 82.68301}
        inSlope: {x: 0, y: 0, z: 0}
        outSlope: {x: 0, y: 0, z: 0}
        tangentMode: 0
      - time: 0.5
        value: {x: 0, y: 0, z: 78.213005}
        inSlope: {x: 0, y: 0, z: -17.880005}
        outSlope: {x: 0, y: 0, z: -17.880005}
        tangentMode: 0
      m_PreInfinity: 2
      m_PostInfinity: 2
      m_RotationOrder: 4
    path: W_Vuln1/wormsegment/wormsegment (1)
  - curve:
      serializedVersion: 2
      m_Curve:
      - time: 0
        value: {x: 0, y: 0, z: 32.944}
        inSlope: {x: 0, y: 0, z: -35.42}
        outSlope: {x: 0, y: 0, z: -35.42}
        tangentMode: 0
      - time: 0.25
        value: {x: 0, y: 0, z: 24.089}
        inSlope: {x: 0, y: 0, z: 0}
        outSlope: {x: 0, y: 0, z: 0}
        tangentMode: 0
      - time: 0.5
        value: {x: 0, y: 0, z: 32.944}
        inSlope: {x: 0, y: 0, z: 35.42}
        outSlope: {x: 0, y: 0, z: 35.42}
        tangentMode: 0
      m_PreInfinity: 2
      m_PostInfinity: 2
      m_RotationOrder: 4
    path: W_Vuln1/wormsegment/wormsegment (1)/wormsegment (2)
  - curve:
      serializedVersion: 2
      m_Curve:
      - time: 0
        value: {x: 0, y: 0, z: 49.04}
        inSlope: {x: 0, y: 0, z: 39.12401}
        outSlope: {x: 0, y: 0, z: 39.12401}
        tangentMode: 0
      - time: 0.25
        value: {x: 0, y: 0, z: 58.821003}
        inSlope: {x: 0, y: 0, z: 0}
        outSlope: {x: 0, y: 0, z: 0}
        tangentMode: 0
      - time: 0.5
        value: {x: 0, y: 0, z: 49.04}
        inSlope: {x: 0, y: 0, z: -39.12401}
        outSlope: {x: 0, y: 0, z: -39.12401}
        tangentMode: 0
      m_PreInfinity: 2
      m_PostInfinity: 2
      m_RotationOrder: 4
    path: W_Vuln1/wormsegment/wormsegment (1)/wormsegment (2)/wormsegment (3)
  - curve:
      serializedVersion: 2
      m_Curve:
      - time: 0
        value: {x: 0, y: 0, z: 47.111004}
        inSlope: {x: 0, y: 0, z: -29.56401}
        outSlope: {x: 0, y: 0, z: -29.56401}
        tangentMode: 0
      - time: 0.25
        value: {x: 0, y: 0, z: 39.72}
        inSlope: {x: 0, y: 0, z: 0}
        outSlope: {x: 0, y: 0, z: 0}
        tangentMode: 0
      - time: 0.5
        value: {x: 0, y: 0, z: 47.111004}
        inSlope: {x: 0, y: 0, z: 29.56401}
        outSlope: {x: 0, y: 0, z: 29.56401}
        tangentMode: 0
      m_PreInfinity: 2
      m_PostInfinity: 2
      m_RotationOrder: 4
    path: W_Vuln1/wormsegment/wormsegment (1)/wormsegment (2)/wormsegment (3)/wormsegment
      (4)
  - curve:
      serializedVersion: 2
      m_Curve:
      - time: 0
        value: {x: 0, y: 0, z: -221.704}
        inSlope: {x: 0, y: 0, z: -51.48004}
        outSlope: {x: 0, y: 0, z: -51.48004}
        tangentMode: 0
      - time: 0.25
        value: {x: 0, y: 0, z: -234.574}
        inSlope: {x: 0, y: 0, z: 0}
        outSlope: {x: 0, y: 0, z: 0}
        tangentMode: 0
      - time: 0.5
        value: {x: 0, y: 0, z: -221.704}
        inSlope: {x: 0, y: 0, z: 51.48004}
        outSlope: {x: 0, y: 0, z: 51.48004}
        tangentMode: 0
      m_PreInfinity: 2
      m_PostInfinity: 2
      m_RotationOrder: 4
    path: W_Vuln1/wormsegment/wormsegment (1)/wormsegment (2)/wormsegment (3)/wormsegment
      (4)/wormtailendtall
  m_PositionCurves:
  - curve:
      serializedVersion: 2
      m_Curve:
      - time: 0
        value: {x: 1.5, y: -9.1, z: 0}
        inSlope: {x: -1.1999998, y: 0, z: 0}
        outSlope: {x: -1.1999998, y: 0, z: 0}
        tangentMode: 0
      - time: 0.25
        value: {x: 1.2, y: -9.1, z: 0}
        inSlope: {x: 0, y: 0, z: 0}
        outSlope: {x: 0, y: 0, z: 0}
        tangentMode: 0
      - time: 0.5
        value: {x: 1.5, y: -9.1, z: 0}
        inSlope: {x: 1.1999998, y: 0, z: 0}
        outSlope: {x: 1.1999998, y: 0, z: 0}
        tangentMode: 0
      m_PreInfinity: 2
      m_PostInfinity: 2
      m_RotationOrder: 4
    path: W_Vuln1
  m_ScaleCurves: []
  m_FloatCurves:
  - curve:
      serializedVersion: 2
      m_Curve:
      - time: 0
        value: 1
        inSlope: 5255.157
        outSlope: 5255.157
        tangentMode: 10
      - time: 0.033333335
        value: 176.17192
        inSlope: 0
        outSlope: 0
        tangentMode: 10
      - time: 0.06666667
        value: 1
        inSlope: 0.00024414062
        outSlope: 0.00024414062
        tangentMode: 10
      - time: 0.1
        value: 176.17192
        inSlope: 0.00048828125
        outSlope: 0.00048828125
        tangentMode: 10
      - time: 0.13333334
        value: 1
        inSlope: 0.00048828125
        outSlope: 0.00048828125
        tangentMode: 10
      - time: 0.16666667
        value: 176.17192
        inSlope: 0
        outSlope: 0
        tangentMode: 10
      - time: 0.2
        value: 1
        inSlope: 0
        outSlope: 0
        tangentMode: 10
      - time: 0.23333333
        value: 176.17192
        inSlope: 0.0009765625
        outSlope: 0.0009765625
        tangentMode: 10
      - time: 0.26666668
        value: 1
        inSlope: 0.0009765625
        outSlope: 0.0009765625
        tangentMode: 10
      - time: 0.3
        value: 176.17192
        inSlope: 0
        outSlope: 0
        tangentMode: 10
      - time: 0.33333334
        value: 1
        inSlope: 0
        outSlope: 0
        tangentMode: 10
      - time: 0.36666667
        value: 176.17192
        inSlope: 0
        outSlope: 0
        tangentMode: 10
      - time: 0.4
        value: 1
        inSlope: 0
        outSlope: 0
        tangentMode: 10
      - time: 0.43333334
        value: 176.17192
        inSlope: 1313.7894
        outSlope: 1313.7894
        tangentMode: 10
      - time: 0.5
        value: 1
        inSlope: -2627.5789
        outSlope: -2627.5789
        tangentMode: 10
      m_PreInfinity: 2
      m_PostInfinity: 2
      m_RotationOrder: 4
    attribute: m_Color.r
    path: W_Vuln1/wormsegment/wormsegment (1)/wormsegment (2)/wormsegment (3)/wormsegment
      (4)/wormtailendtall
    classID: 212
    script: {fileID: 0}
  - curve:
      serializedVersion: 2
      m_Curve:
      - time: 0
        value: 1
        inSlope: -43.431053
        outSlope: -43.431053
        tangentMode: 10
      - time: 0.033333335
        value: -0.44770184
        inSlope: 0
        outSlope: 0
        tangentMode: 10
      - time: 0.06666667
        value: 1
        inSlope: -0.0000019073486
        outSlope: -0.0000019073486
        tangentMode: 10
      - time: 0.1
        value: -0.44770184
        inSlope: -0.000005722046
        outSlope: -0.000005722046
        tangentMode: 10
      - time: 0.13333334
        value: 1
        inSlope: -0.000005722046
        outSlope: -0.000005722046
        tangentMode: 10
      - time: 0.16666667
        value: -0.44770184
        inSlope: 0
        outSlope: 0
        tangentMode: 10
      - time: 0.2
        value: 1
        inSlope: 0
        outSlope: 0
        tangentMode: 10
      - time: 0.23333333
        value: -0.44770184
        inSlope: -0.000009536743
        outSlope: -0.000009536743
        tangentMode: 10
      - time: 0.26666668
        value: 1
        inSlope: -0.000009536743
        outSlope: -0.000009536743
        tangentMode: 10
      - time: 0.3
        value: -0.44770184
        inSlope: 0
        outSlope: 0
        tangentMode: 10
      - time: 0.33333334
        value: 1
        inSlope: 0
        outSlope: 0
        tangentMode: 10
      - time: 0.36666667
        value: -0.44770184
        inSlope: 0
        outSlope: 0
        tangentMode: 10
      - time: 0.4
        value: 1
        inSlope: 0
        outSlope: 0
        tangentMode: 10
      - time: 0.43333334
        value: -0.44770184
        inSlope: -10.857764
        outSlope: -10.857764
        tangentMode: 10
      - time: 0.5
        value: 1
        inSlope: 21.715528
        outSlope: 21.715528
        tangentMode: 10
      m_PreInfinity: 2
      m_PostInfinity: 2
      m_RotationOrder: 4
    attribute: m_Color.g
    path: W_Vuln1/wormsegment/wormsegment (1)/wormsegment (2)/wormsegment (3)/wormsegment
      (4)/wormtailendtall
    classID: 212
    script: {fileID: 0}
  - curve:
      serializedVersion: 2
      m_Curve:
      - time: 0
        value: 1
        inSlope: -43.431053
        outSlope: -43.431053
        tangentMode: 10
      - time: 0.033333335
        value: -0.44770184
        inSlope: 0
        outSlope: 0
        tangentMode: 10
      - time: 0.06666667
        value: 1
        inSlope: -0.0000019073486
        outSlope: -0.0000019073486
        tangentMode: 10
      - time: 0.1
        value: -0.44770184
        inSlope: -0.000005722046
        outSlope: -0.000005722046
        tangentMode: 10
      - time: 0.13333334
        value: 1
        inSlope: -0.000005722046
        outSlope: -0.000005722046
        tangentMode: 10
      - time: 0.16666667
        value: -0.44770184
        inSlope: 0
        outSlope: 0
        tangentMode: 10
      - time: 0.2
        value: 1
        inSlope: 0
        outSlope: 0
        tangentMode: 10
      - time: 0.23333333
        value: -0.44770184
        inSlope: -0.000009536743
        outSlope: -0.000009536743
        tangentMode: 10
      - time: 0.26666668
        value: 1
        inSlope: -0.000009536743
        outSlope: -0.000009536743
        tangentMode: 10
      - time: 0.3
        value: -0.44770184
        inSlope: 0
        outSlope: 0
        tangentMode: 10
      - time: 0.33333334
        value: 1
        inSlope: 0
        outSlope: 0
        tangentMode: 10
      - time: 0.36666667
        value: -0.44770184
        inSlope: 0
        outSlope: 0
        tangentMode: 10
      - time: 0.4
        value: 1
        inSlope: 0
        outSlope: 0
        tangentMode: 10
      - time: 0.43333334
        value: -0.44770184
        inSlope: -10.857764
        outSlope: -10.857764
        tangentMode: 10
      - time: 0.5
        value: 1
        inSlope: 21.715528
        outSlope: 21.715528
        tangentMode: 10
      m_PreInfinity: 2
      m_PostInfinity: 2
      m_RotationOrder: 4
    attribute: m_Color.b
    path: W_Vuln1/wormsegment/wormsegment (1)/wormsegment (2)/wormsegment (3)/wormsegment
      (4)/wormtailendtall
    classID: 212
    script: {fileID: 0}
  - curve:
      serializedVersion: 2
      m_Curve:
      - time: 0
        value: 1
        inSlope: 0
        outSlope: 0
        tangentMode: 10
      - time: 0.033333335
        value: 1
        inSlope: 0
        outSlope: 0
        tangentMode: 10
      - time: 0.06666667
        value: 1
        inSlope: 0
        outSlope: 0
        tangentMode: 10
      - time: 0.1
        value: 1
        inSlope: 0
        outSlope: 0
        tangentMode: 10
      - time: 0.13333334
        value: 1
        inSlope: 0
        outSlope: 0
        tangentMode: 10
      - time: 0.16666667
        value: 1
        inSlope: 0
        outSlope: 0
        tangentMode: 10
      - time: 0.2
        value: 1
        inSlope: 0
        outSlope: 0
        tangentMode: 10
      - time: 0.23333333
        value: 1
        inSlope: 0
        outSlope: 0
        tangentMode: 10
      - time: 0.26666668
        value: 1
        inSlope: 0
        outSlope: 0
        tangentMode: 10
      - time: 0.3
        value: 1
        inSlope: 0
        outSlope: 0
        tangentMode: 10
      - time: 0.33333334
        value: 1
        inSlope: 0
        outSlope: 0
        tangentMode: 10
      - time: 0.36666667
        value: 1
        inSlope: 0
        outSlope: 0
        tangentMode: 10
      - time: 0.4
        value: 1
        inSlope: 0
        outSlope: 0
        tangentMode: 10
      - time: 0.43333334
        value: 1
        inSlope: 0
        outSlope: 0
        tangentMode: 10
      - time: 0.5
        value: 1
        inSlope: 0
        outSlope: 0
        tangentMode: 10
      m_PreInfinity: 2
      m_PostInfinity: 2
      m_RotationOrder: 4
    attribute: m_Color.a
    path: W_Vuln1/wormsegment/wormsegment (1)/wormsegment (2)/wormsegment (3)/wormsegment
      (4)/wormtailendtall
    classID: 212
    script: {fileID: 0}
  - curve:
      serializedVersion: 2
      m_Curve:
      - time: 0
        value: 0
        inSlope: Infinity
        outSlope: Infinity
        tangentMode: 31
      - time: 0.5
        value: 0
        inSlope: Infinity
        outSlope: Infinity
        tangentMode: 31
      m_PreInfinity: 2
      m_PostInfinity: 2
      m_RotationOrder: 4
    attribute: m_Enabled
    path: W_Vuln1/wormsegment/wormsegment (1)/wormsegment (2)/wormsegment (3)/wormsegment
      (4)/wormtailendtall
    classID: 61
    script: {fileID: 0}
  - curve:
      serializedVersion: 2
      m_Curve:
      - time: 0
        value: 1
        inSlope: Infinity
        outSlope: Infinity
        tangentMode: 31
      - time: 0.5
        value: 0
        inSlope: Infinity
        outSlope: Infinity
        tangentMode: 31
      m_PreInfinity: 2
      m_PostInfinity: 2
      m_RotationOrder: 4
    attribute: m_Enabled
    path: Crash
    classID: 82
    script: {fileID: 0}
  m_PPtrCurves:
  - curve:
    - time: 0
      value: {fileID: 21300000, guid: 91b9b9f98affe8c498d133cbf574660b, type: 3}
    - time: 0.25
      value: {fileID: 21300000, guid: ac916ff258b19634b93b764c5900a140, type: 3}
    - time: 0.5
      value: {fileID: 21300000, guid: ac916ff258b19634b93b764c5900a140, type: 3}
    attribute: m_Sprite
    path: W_Vuln1/wormsegment/wormsegment (1)/wormsegment (2)/wormsegment (3)/wormsegment
      (4)/wormtailendtall
    classID: 212
    script: {fileID: 0}
  - curve:
    - time: 0
      value: {fileID: 21300000, guid: 209978cf38c47a84b83418da49b79487, type: 3}
    - time: 0.06666667
      value: {fileID: 21300000, guid: 39af6e5e41cc9c64f9012f6a88bcfab4, type: 3}
    - time: 0.13333334
      value: {fileID: 21300000, guid: 209978cf38c47a84b83418da49b79487, type: 3}
    - time: 0.2
      value: {fileID: 21300000, guid: 39af6e5e41cc9c64f9012f6a88bcfab4, type: 3}
    - time: 0.26666668
      value: {fileID: 21300000, guid: 209978cf38c47a84b83418da49b79487, type: 3}
    - time: 0.33333334
      value: {fileID: 21300000, guid: 39af6e5e41cc9c64f9012f6a88bcfab4, type: 3}
    - time: 0.4
      value: {fileID: 21300000, guid: 209978cf38c47a84b83418da49b79487, type: 3}
    - time: 0.46666667
      value: {fileID: 21300000, guid: 39af6e5e41cc9c64f9012f6a88bcfab4, type: 3}
    attribute: m_Sprite
    path: W_Vuln1
    classID: 212
    script: {fileID: 0}
  m_SampleRate: 60
  m_WrapMode: 0
  m_Bounds:
    m_Center: {x: 0, y: 0, z: 0}
    m_Extent: {x: 0, y: 0, z: 0}
  m_ClipBindingConstant:
    genericBindings:
    - path: 2249829623
      attribute: 1
      script: {fileID: 0}
      classID: 4
      customType: 0
      isPPtrCurve: 0
    - path: 2249829623
      attribute: 4
      script: {fileID: 0}
      classID: 4
      customType: 14
      isPPtrCurve: 0
    - path: 4082438842
      attribute: 4
      script: {fileID: 0}
      classID: 4
      customType: 14
      isPPtrCurve: 0
    - path: 958562052
      attribute: 4
      script: {fileID: 0}
      classID: 4
      customType: 14
      isPPtrCurve: 0
    - path: 2302840459
      attribute: 4
      script: {fileID: 0}
      classID: 4
      customType: 14
      isPPtrCurve: 0
    - path: 2560656362
      attribute: 4
      script: {fileID: 0}
      classID: 4
      customType: 14
      isPPtrCurve: 0
    - path: 999792654
      attribute: 4
      script: {fileID: 0}
      classID: 4
      customType: 14
      isPPtrCurve: 0
    - path: 2026865099
      attribute: 4
      script: {fileID: 0}
      classID: 4
      customType: 14
      isPPtrCurve: 0
    - path: 2026865099
      attribute: 2526845255
      script: {fileID: 0}
      classID: 212
      customType: 0
      isPPtrCurve: 0
    - path: 2026865099
      attribute: 4215373228
      script: {fileID: 0}
      classID: 212
      customType: 0
      isPPtrCurve: 0
    - path: 2026865099
      attribute: 2334886179
      script: {fileID: 0}
      classID: 212
      customType: 0
      isPPtrCurve: 0
    - path: 2026865099
      attribute: 3305885265
      script: {fileID: 0}
      classID: 61
      customType: 0
      isPPtrCurve: 0
    - path: 371843035
      attribute: 3305885265
      script: {fileID: 0}
      classID: 82
      customType: 0
      isPPtrCurve: 0
    - path: 2026865099
      attribute: 0
      script: {fileID: 0}
      classID: 212
      customType: 23
      isPPtrCurve: 1
    - path: 2249829623
      attribute: 0
      script: {fileID: 0}
      classID: 212
      customType: 23
      isPPtrCurve: 1
    - path: 2026865099
      attribute: 304273561
      script: {fileID: 0}
      classID: 212
      customType: 0
      isPPtrCurve: 0
    pptrCurveMapping:
    - {fileID: 21300000, guid: 91b9b9f98affe8c498d133cbf574660b, type: 3}
    - {fileID: 21300000, guid: ac916ff258b19634b93b764c5900a140, type: 3}
    - {fileID: 21300000, guid: ac916ff258b19634b93b764c5900a140, type: 3}
    - {fileID: 21300000, guid: 209978cf38c47a84b83418da49b79487, type: 3}
    - {fileID: 21300000, guid: 39af6e5e41cc9c64f9012f6a88bcfab4, type: 3}
    - {fileID: 21300000, guid: 209978cf38c47a84b83418da49b79487, type: 3}
    - {fileID: 21300000, guid: 39af6e5e41cc9c64f9012f6a88bcfab4, type: 3}
    - {fileID: 21300000, guid: 209978cf38c47a84b83418da49b79487, type: 3}
    - {fileID: 21300000, guid: 39af6e5e41cc9c64f9012f6a88bcfab4, type: 3}
    - {fileID: 21300000, guid: 209978cf38c47a84b83418da49b79487, type: 3}
    - {fileID: 21300000, guid: 39af6e5e41cc9c64f9012f6a88bcfab4, type: 3}
  m_AnimationClipSettings:
    serializedVersion: 2
    m_AdditiveReferencePoseClip: {fileID: 0}
    m_AdditiveReferencePoseTime: 0
    m_StartTime: 0
    m_StopTime: 0.51666665
    m_OrientationOffsetY: 0
    m_Level: 0
    m_CycleOffset: 0
    m_HasAdditiveReferencePose: 0
    m_LoopTime: 0
    m_LoopBlend: 0
    m_LoopBlendOrientation: 0
    m_LoopBlendPositionY: 0
    m_LoopBlendPositionXZ: 0
    m_KeepOriginalOrientation: 0
    m_KeepOriginalPositionY: 1
    m_KeepOriginalPositionXZ: 0
    m_HeightFromFeet: 0
    m_Mirror: 0
  m_EditorCurves:
  - curve:
      serializedVersion: 2
      m_Curve:
      - time: 0
        value: 1.5
        inSlope: -1.1999998
        outSlope: -1.1999998
        tangentMode: 10
      - time: 0.25
        value: 1.2
        inSlope: 0
        outSlope: 0
        tangentMode: 10
      - time: 0.5
        value: 1.5
        inSlope: 1.1999998
        outSlope: 1.1999998
        tangentMode: 10
      m_PreInfinity: 2
      m_PostInfinity: 2
      m_RotationOrder: 4
    attribute: m_LocalPosition.x
    path: W_Vuln1
    classID: 4
    script: {fileID: 0}
  - curve:
      serializedVersion: 2
      m_Curve:
      - time: 0
        value: -9.1
        inSlope: 0
        outSlope: 0
        tangentMode: 10
      - time: 0.25
        value: -9.1
        inSlope: 0
        outSlope: 0
        tangentMode: 10
      - time: 0.5
        value: -9.1
        inSlope: 0
        outSlope: 0
        tangentMode: 10
      m_PreInfinity: 2
      m_PostInfinity: 2
      m_RotationOrder: 4
    attribute: m_LocalPosition.y
    path: W_Vuln1
    classID: 4
    script: {fileID: 0}
  - curve:
      serializedVersion: 2
      m_Curve:
      - time: 0
        value: 0
        inSlope: 0
        outSlope: 0
        tangentMode: 10
      - time: 0.25
        value: 0
        inSlope: 0
        outSlope: 0
        tangentMode: 10
      - time: 0.5
        value: 0
        inSlope: 0
        outSlope: 0
        tangentMode: 10
      m_PreInfinity: 2
      m_PostInfinity: 2
      m_RotationOrder: 4
    attribute: m_LocalPosition.z
    path: W_Vuln1
    classID: 4
    script: {fileID: 0}
  - curve:
      serializedVersion: 2
      m_Curve:
      - time: 0
        value: 0
        inSlope: 0
        outSlope: 0
        tangentMode: 10
      - time: 0.25
        value: 0
        inSlope: 0
        outSlope: 0
        tangentMode: 10
      - time: 0.5
        value: 0
        inSlope: 0
        outSlope: 0
        tangentMode: 10
      m_PreInfinity: 2
      m_PostInfinity: 2
      m_RotationOrder: 4
    attribute: localEulerAnglesRaw.x
    path: W_Vuln1
    classID: 4
    script: {fileID: 0}
  - curve:
      serializedVersion: 2
      m_Curve:
      - time: 0
        value: 0
        inSlope: 0
        outSlope: 0
        tangentMode: 10
      - time: 0.25
        value: 0
        inSlope: 0
        outSlope: 0
        tangentMode: 10
      - time: 0.5
        value: 0
        inSlope: 0
        outSlope: 0
        tangentMode: 10
      m_PreInfinity: 2
      m_PostInfinity: 2
      m_RotationOrder: 4
    attribute: localEulerAnglesRaw.y
    path: W_Vuln1
    classID: 4
    script: {fileID: 0}
  - curve:
      serializedVersion: 2
      m_Curve:
      - time: 0
        value: -52.316
        inSlope: 63.796005
        outSlope: 63.796005
        tangentMode: 10
      - time: 0.25
        value: -36.367
        inSlope: 0
        outSlope: 0
        tangentMode: 10
      - time: 0.5
        value: -52.316
        inSlope: -63.796005
        outSlope: -63.796005
        tangentMode: 10
      m_PreInfinity: 2
      m_PostInfinity: 2
      m_RotationOrder: 4
    attribute: localEulerAnglesRaw.z
    path: W_Vuln1
    classID: 4
    script: {fileID: 0}
  - curve:
      serializedVersion: 2
      m_Curve:
      - time: 0
        value: 0
        inSlope: 0
        outSlope: 0
        tangentMode: 10
      - time: 0.25
        value: 0
        inSlope: 0
        outSlope: 0
        tangentMode: 10
      - time: 0.5
        value: 0
        inSlope: 0
        outSlope: 0
        tangentMode: 10
      m_PreInfinity: 2
      m_PostInfinity: 2
      m_RotationOrder: 4
    attribute: localEulerAnglesRaw.x
    path: W_Vuln1/wormsegment
    classID: 4
    script: {fileID: 0}
  - curve:
      serializedVersion: 2
      m_Curve:
      - time: 0
        value: 0
        inSlope: 0
        outSlope: 0
        tangentMode: 10
      - time: 0.25
        value: 0
        inSlope: 0
        outSlope: 0
        tangentMode: 10
      - time: 0.5
        value: 0
        inSlope: 0
        outSlope: 0
        tangentMode: 10
      m_PreInfinity: 2
      m_PostInfinity: 2
      m_RotationOrder: 4
    attribute: localEulerAnglesRaw.y
    path: W_Vuln1/wormsegment
    classID: 4
    script: {fileID: 0}
  - curve:
      serializedVersion: 2
      m_Curve:
      - time: 0
        value: 106.51201
        inSlope: -34.544006
        outSlope: -34.544006
        tangentMode: 10
      - time: 0.25
        value: 97.87601
        inSlope: 0
        outSlope: 0
        tangentMode: 10
      - time: 0.5
        value: 106.51201
        inSlope: 34.544006
        outSlope: 34.544006
        tangentMode: 10
      m_PreInfinity: 2
      m_PostInfinity: 2
      m_RotationOrder: 4
    attribute: localEulerAnglesRaw.z
    path: W_Vuln1/wormsegment
    classID: 4
    script: {fileID: 0}
  - curve:
      serializedVersion: 2
      m_Curve:
      - time: 0
        value: 0
        inSlope: 0
        outSlope: 0
        tangentMode: 10
      - time: 0.25
        value: 0
        inSlope: 0
        outSlope: 0
        tangentMode: 10
      - time: 0.5
        value: 0
        inSlope: 0
        outSlope: 0
        tangentMode: 10
      m_PreInfinity: 2
      m_PostInfinity: 2
      m_RotationOrder: 4
    attribute: localEulerAnglesRaw.x
    path: W_Vuln1/wormsegment/wormsegment (1)
    classID: 4
    script: {fileID: 0}
  - curve:
      serializedVersion: 2
      m_Curve:
      - time: 0
        value: 0
        inSlope: 0
        outSlope: 0
        tangentMode: 10
      - time: 0.25
        value: 0
        inSlope: 0
        outSlope: 0
        tangentMode: 10
      - time: 0.5
        value: 0
        inSlope: 0
        outSlope: 0
        tangentMode: 10
      m_PreInfinity: 2
      m_PostInfinity: 2
      m_RotationOrder: 4
    attribute: localEulerAnglesRaw.y
    path: W_Vuln1/wormsegment/wormsegment (1)
    classID: 4
    script: {fileID: 0}
  - curve:
      serializedVersion: 2
      m_Curve:
      - time: 0
        value: 78.213005
        inSlope: 17.880005
        outSlope: 17.880005
        tangentMode: 10
      - time: 0.25
        value: 82.68301
        inSlope: 0
        outSlope: 0
        tangentMode: 10
      - time: 0.5
        value: 78.213005
        inSlope: -17.880005
        outSlope: -17.880005
        tangentMode: 10
      m_PreInfinity: 2
      m_PostInfinity: 2
      m_RotationOrder: 4
    attribute: localEulerAnglesRaw.z
    path: W_Vuln1/wormsegment/wormsegment (1)
    classID: 4
    script: {fileID: 0}
  - curve:
      serializedVersion: 2
      m_Curve:
      - time: 0
        value: 0
        inSlope: 0
        outSlope: 0
        tangentMode: 10
      - time: 0.25
        value: 0
        inSlope: 0
        outSlope: 0
        tangentMode: 10
      - time: 0.5
        value: 0
        inSlope: 0
        outSlope: 0
        tangentMode: 10
      m_PreInfinity: 2
      m_PostInfinity: 2
      m_RotationOrder: 4
    attribute: localEulerAnglesRaw.x
    path: W_Vuln1/wormsegment/wormsegment (1)/wormsegment (2)
    classID: 4
    script: {fileID: 0}
  - curve:
      serializedVersion: 2
      m_Curve:
      - time: 0
        value: 0
        inSlope: 0
        outSlope: 0
        tangentMode: 10
      - time: 0.25
        value: 0
        inSlope: 0
        outSlope: 0
        tangentMode: 10
      - time: 0.5
        value: 0
        inSlope: 0
        outSlope: 0
        tangentMode: 10
      m_PreInfinity: 2
      m_PostInfinity: 2
      m_RotationOrder: 4
    attribute: localEulerAnglesRaw.y
    path: W_Vuln1/wormsegment/wormsegment (1)/wormsegment (2)
    classID: 4
    script: {fileID: 0}
  - curve:
      serializedVersion: 2
      m_Curve:
      - time: 0
        value: 32.944
        inSlope: -35.42
        outSlope: -35.42
        tangentMode: 10
      - time: 0.25
        value: 24.089
        inSlope: 0
        outSlope: 0
        tangentMode: 10
      - time: 0.5
        value: 32.944
        inSlope: 35.42
        outSlope: 35.42
        tangentMode: 10
      m_PreInfinity: 2
      m_PostInfinity: 2
      m_RotationOrder: 4
    attribute: localEulerAnglesRaw.z
    path: W_Vuln1/wormsegment/wormsegment (1)/wormsegment (2)
    classID: 4
    script: {fileID: 0}
  - curve:
      serializedVersion: 2
      m_Curve:
      - time: 0
        value: 0
        inSlope: 0
        outSlope: 0
        tangentMode: 10
      - time: 0.25
        value: 0
        inSlope: 0
        outSlope: 0
        tangentMode: 10
      - time: 0.5
        value: 0
        inSlope: 0
        outSlope: 0
        tangentMode: 10
      m_PreInfinity: 2
      m_PostInfinity: 2
      m_RotationOrder: 4
    attribute: localEulerAnglesRaw.x
    path: W_Vuln1/wormsegment/wormsegment (1)/wormsegment (2)/wormsegment (3)
    classID: 4
    script: {fileID: 0}
  - curve:
      serializedVersion: 2
      m_Curve:
      - time: 0
        value: 0
        inSlope: 0
        outSlope: 0
        tangentMode: 10
      - time: 0.25
        value: 0
        inSlope: 0
        outSlope: 0
        tangentMode: 10
      - time: 0.5
        value: 0
        inSlope: 0
        outSlope: 0
        tangentMode: 10
      m_PreInfinity: 2
      m_PostInfinity: 2
      m_RotationOrder: 4
    attribute: localEulerAnglesRaw.y
    path: W_Vuln1/wormsegment/wormsegment (1)/wormsegment (2)/wormsegment (3)
    classID: 4
    script: {fileID: 0}
  - curve:
      serializedVersion: 2
      m_Curve:
      - time: 0
        value: 49.04
        inSlope: 39.12401
        outSlope: 39.12401
        tangentMode: 10
      - time: 0.25
        value: 58.821003
        inSlope: 0
        outSlope: 0
        tangentMode: 10
      - time: 0.5
        value: 49.04
        inSlope: -39.12401
        outSlope: -39.12401
        tangentMode: 10
      m_PreInfinity: 2
      m_PostInfinity: 2
      m_RotationOrder: 4
    attribute: localEulerAnglesRaw.z
    path: W_Vuln1/wormsegment/wormsegment (1)/wormsegment (2)/wormsegment (3)
    classID: 4
    script: {fileID: 0}
  - curve:
      serializedVersion: 2
      m_Curve:
      - time: 0
        value: 0
        inSlope: 0
        outSlope: 0
        tangentMode: 10
      - time: 0.25
        value: 0
        inSlope: 0
        outSlope: 0
        tangentMode: 10
      - time: 0.5
        value: 0
        inSlope: 0
        outSlope: 0
        tangentMode: 10
      m_PreInfinity: 2
      m_PostInfinity: 2
      m_RotationOrder: 4
    attribute: localEulerAnglesRaw.x
    path: W_Vuln1/wormsegment/wormsegment (1)/wormsegment (2)/wormsegment (3)/wormsegment
      (4)
    classID: 4
    script: {fileID: 0}
  - curve:
      serializedVersion: 2
      m_Curve:
      - time: 0
        value: 0
        inSlope: 0
        outSlope: 0
        tangentMode: 10
      - time: 0.25
        value: 0
        inSlope: 0
        outSlope: 0
        tangentMode: 10
      - time: 0.5
        value: 0
        inSlope: 0
        outSlope: 0
        tangentMode: 10
      m_PreInfinity: 2
      m_PostInfinity: 2
      m_RotationOrder: 4
    attribute: localEulerAnglesRaw.y
    path: W_Vuln1/wormsegment/wormsegment (1)/wormsegment (2)/wormsegment (3)/wormsegment
      (4)
    classID: 4
    script: {fileID: 0}
  - curve:
      serializedVersion: 2
      m_Curve:
      - time: 0
        value: 47.111004
        inSlope: -29.56401
        outSlope: -29.56401
        tangentMode: 10
      - time: 0.25
        value: 39.72
        inSlope: 0
        outSlope: 0
        tangentMode: 10
      - time: 0.5
        value: 47.111004
        inSlope: 29.56401
        outSlope: 29.56401
        tangentMode: 10
      m_PreInfinity: 2
      m_PostInfinity: 2
      m_RotationOrder: 4
    attribute: localEulerAnglesRaw.z
    path: W_Vuln1/wormsegment/wormsegment (1)/wormsegment (2)/wormsegment (3)/wormsegment
      (4)
    classID: 4
    script: {fileID: 0}
  - curve:
      serializedVersion: 2
      m_Curve:
      - time: 0
        value: 0
        inSlope: 0
        outSlope: 0
        tangentMode: 10
      - time: 0.25
        value: 0
        inSlope: 0
        outSlope: 0
        tangentMode: 10
      - time: 0.5
        value: 0
        inSlope: 0
        outSlope: 0
        tangentMode: 10
      m_PreInfinity: 2
      m_PostInfinity: 2
      m_RotationOrder: 4
    attribute: localEulerAnglesRaw.x
    path: W_Vuln1/wormsegment/wormsegment (1)/wormsegment (2)/wormsegment (3)/wormsegment
      (4)/wormtailendtall
    classID: 4
    script: {fileID: 0}
  - curve:
      serializedVersion: 2
      m_Curve:
      - time: 0
        value: 0
        inSlope: 0
        outSlope: 0
        tangentMode: 10
      - time: 0.25
        value: 0
        inSlope: 0
        outSlope: 0
        tangentMode: 10
      - time: 0.5
        value: 0
        inSlope: 0
        outSlope: 0
        tangentMode: 10
      m_PreInfinity: 2
      m_PostInfinity: 2
      m_RotationOrder: 4
    attribute: localEulerAnglesRaw.y
    path: W_Vuln1/wormsegment/wormsegment (1)/wormsegment (2)/wormsegment (3)/wormsegment
      (4)/wormtailendtall
    classID: 4
    script: {fileID: 0}
  - curve:
      serializedVersion: 2
      m_Curve:
      - time: 0
        value: -221.704
        inSlope: -51.48004
        outSlope: -51.48004
        tangentMode: 10
      - time: 0.25
        value: -234.574
        inSlope: 0
        outSlope: 0
        tangentMode: 10
      - time: 0.5
        value: -221.704
        inSlope: 51.48004
        outSlope: 51.48004
        tangentMode: 10
      m_PreInfinity: 2
      m_PostInfinity: 2
      m_RotationOrder: 4
    attribute: localEulerAnglesRaw.z
    path: W_Vuln1/wormsegment/wormsegment (1)/wormsegment (2)/wormsegment (3)/wormsegment
      (4)/wormtailendtall
    classID: 4
    script: {fileID: 0}
  - curve:
      serializedVersion: 2
      m_Curve:
      - time: 0
        value: 1
        inSlope: 5255.157
        outSlope: 5255.157
        tangentMode: 10
      - time: 0.033333335
        value: 176.17192
        inSlope: 0
        outSlope: 0
        tangentMode: 10
      - time: 0.06666667
        value: 1
        inSlope: 0.00024414062
        outSlope: 0.00024414062
        tangentMode: 10
      - time: 0.1
        value: 176.17192
        inSlope: 0.00048828125
        outSlope: 0.00048828125
        tangentMode: 10
      - time: 0.13333334
        value: 1
        inSlope: 0.00048828125
        outSlope: 0.00048828125
        tangentMode: 10
      - time: 0.16666667
        value: 176.17192
        inSlope: 0
        outSlope: 0
        tangentMode: 10
      - time: 0.2
        value: 1
        inSlope: 0
        outSlope: 0
        tangentMode: 10
      - time: 0.23333333
        value: 176.17192
        inSlope: 0.0009765625
        outSlope: 0.0009765625
        tangentMode: 10
      - time: 0.26666668
        value: 1
        inSlope: 0.0009765625
        outSlope: 0.0009765625
        tangentMode: 10
      - time: 0.3
        value: 176.17192
        inSlope: 0
        outSlope: 0
        tangentMode: 10
      - time: 0.33333334
        value: 1
        inSlope: 0
        outSlope: 0
        tangentMode: 10
      - time: 0.36666667
        value: 176.17192
        inSlope: 0
        outSlope: 0
        tangentMode: 10
      - time: 0.4
        value: 1
        inSlope: 0
        outSlope: 0
        tangentMode: 10
      - time: 0.43333334
        value: 176.17192
        inSlope: 1313.7894
        outSlope: 1313.7894
        tangentMode: 10
      - time: 0.5
        value: 1
        inSlope: -2627.5789
        outSlope: -2627.5789
        tangentMode: 10
      m_PreInfinity: 2
      m_PostInfinity: 2
      m_RotationOrder: 4
    attribute: m_Color.r
    path: W_Vuln1/wormsegment/wormsegment (1)/wormsegment (2)/wormsegment (3)/wormsegment
      (4)/wormtailendtall
    classID: 212
    script: {fileID: 0}
  - curve:
      serializedVersion: 2
      m_Curve:
      - time: 0
        value: 1
        inSlope: -43.431053
        outSlope: -43.431053
        tangentMode: 10
      - time: 0.033333335
        value: -0.44770184
        inSlope: 0
        outSlope: 0
        tangentMode: 10
      - time: 0.06666667
        value: 1
        inSlope: -0.0000019073486
        outSlope: -0.0000019073486
        tangentMode: 10
      - time: 0.1
        value: -0.44770184
        inSlope: -0.000005722046
        outSlope: -0.000005722046
        tangentMode: 10
      - time: 0.13333334
        value: 1
        inSlope: -0.000005722046
        outSlope: -0.000005722046
        tangentMode: 10
      - time: 0.16666667
        value: -0.44770184
        inSlope: 0
        outSlope: 0
        tangentMode: 10
      - time: 0.2
        value: 1
        inSlope: 0
        outSlope: 0
        tangentMode: 10
      - time: 0.23333333
        value: -0.44770184
        inSlope: -0.000009536743
        outSlope: -0.000009536743
        tangentMode: 10
      - time: 0.26666668
        value: 1
        inSlope: -0.000009536743
        outSlope: -0.000009536743
        tangentMode: 10
      - time: 0.3
        value: -0.44770184
        inSlope: 0
        outSlope: 0
        tangentMode: 10
      - time: 0.33333334
        value: 1
        inSlope: 0
        outSlope: 0
        tangentMode: 10
      - time: 0.36666667
        value: -0.44770184
        inSlope: 0
        outSlope: 0
        tangentMode: 10
      - time: 0.4
        value: 1
        inSlope: 0
        outSlope: 0
        tangentMode: 10
      - time: 0.43333334
        value: -0.44770184
        inSlope: -10.857764
        outSlope: -10.857764
        tangentMode: 10
      - time: 0.5
        value: 1
        inSlope: 21.715528
        outSlope: 21.715528
        tangentMode: 10
      m_PreInfinity: 2
      m_PostInfinity: 2
      m_RotationOrder: 4
    attribute: m_Color.g
    path: W_Vuln1/wormsegment/wormsegment (1)/wormsegment (2)/wormsegment (3)/wormsegment
      (4)/wormtailendtall
    classID: 212
    script: {fileID: 0}
  - curve:
      serializedVersion: 2
      m_Curve:
      - time: 0
        value: 1
        inSlope: -43.431053
        outSlope: -43.431053
        tangentMode: 10
      - time: 0.033333335
        value: -0.44770184
        inSlope: 0
        outSlope: 0
        tangentMode: 10
      - time: 0.06666667
        value: 1
        inSlope: -0.0000019073486
        outSlope: -0.0000019073486
        tangentMode: 10
      - time: 0.1
        value: -0.44770184
        inSlope: -0.000005722046
        outSlope: -0.000005722046
        tangentMode: 10
      - time: 0.13333334
        value: 1
        inSlope: -0.000005722046
        outSlope: -0.000005722046
        tangentMode: 10
      - time: 0.16666667
        value: -0.44770184
        inSlope: 0
        outSlope: 0
        tangentMode: 10
      - time: 0.2
        value: 1
        inSlope: 0
        outSlope: 0
        tangentMode: 10
      - time: 0.23333333
        value: -0.44770184
        inSlope: -0.000009536743
        outSlope: -0.000009536743
        tangentMode: 10
      - time: 0.26666668
        value: 1
        inSlope: -0.000009536743
        outSlope: -0.000009536743
        tangentMode: 10
      - time: 0.3
        value: -0.44770184
        inSlope: 0
        outSlope: 0
        tangentMode: 10
      - time: 0.33333334
        value: 1
        inSlope: 0
        outSlope: 0
        tangentMode: 10
      - time: 0.36666667
        value: -0.44770184
        inSlope: 0
        outSlope: 0
        tangentMode: 10
      - time: 0.4
        value: 1
        inSlope: 0
        outSlope: 0
        tangentMode: 10
      - time: 0.43333334
        value: -0.44770184
        inSlope: -10.857764
        outSlope: -10.857764
        tangentMode: 10
      - time: 0.5
        value: 1
        inSlope: 21.715528
        outSlope: 21.715528
        tangentMode: 10
      m_PreInfinity: 2
      m_PostInfinity: 2
      m_RotationOrder: 4
    attribute: m_Color.b
    path: W_Vuln1/wormsegment/wormsegment (1)/wormsegment (2)/wormsegment (3)/wormsegment
      (4)/wormtailendtall
    classID: 212
    script: {fileID: 0}
  - curve:
      serializedVersion: 2
      m_Curve:
      - time: 0
        value: 1
        inSlope: 0
        outSlope: 0
        tangentMode: 10
      - time: 0.033333335
        value: 1
        inSlope: 0
        outSlope: 0
        tangentMode: 10
      - time: 0.06666667
        value: 1
        inSlope: 0
        outSlope: 0
        tangentMode: 10
      - time: 0.1
        value: 1
        inSlope: 0
        outSlope: 0
        tangentMode: 10
      - time: 0.13333334
        value: 1
        inSlope: 0
        outSlope: 0
        tangentMode: 10
      - time: 0.16666667
        value: 1
        inSlope: 0
        outSlope: 0
        tangentMode: 10
      - time: 0.2
        value: 1
        inSlope: 0
        outSlope: 0
        tangentMode: 10
      - time: 0.23333333
        value: 1
        inSlope: 0
        outSlope: 0
        tangentMode: 10
      - time: 0.26666668
        value: 1
        inSlope: 0
        outSlope: 0
        tangentMode: 10
      - time: 0.3
        value: 1
        inSlope: 0
        outSlope: 0
        tangentMode: 10
      - time: 0.33333334
        value: 1
        inSlope: 0
        outSlope: 0
        tangentMode: 10
      - time: 0.36666667
        value: 1
        inSlope: 0
        outSlope: 0
        tangentMode: 10
      - time: 0.4
        value: 1
        inSlope: 0
        outSlope: 0
        tangentMode: 10
      - time: 0.43333334
        value: 1
        inSlope: 0
        outSlope: 0
        tangentMode: 10
      - time: 0.5
        value: 1
        inSlope: 0
        outSlope: 0
        tangentMode: 10
      m_PreInfinity: 2
      m_PostInfinity: 2
      m_RotationOrder: 4
    attribute: m_Color.a
    path: W_Vuln1/wormsegment/wormsegment (1)/wormsegment (2)/wormsegment (3)/wormsegment
      (4)/wormtailendtall
    classID: 212
    script: {fileID: 0}
  - curve:
      serializedVersion: 2
      m_Curve:
      - time: 0
        value: 0
        inSlope: Infinity
        outSlope: Infinity
        tangentMode: 31
      - time: 0.5
        value: 0
        inSlope: Infinity
        outSlope: Infinity
        tangentMode: 31
      m_PreInfinity: 2
      m_PostInfinity: 2
      m_RotationOrder: 4
    attribute: m_Enabled
    path: W_Vuln1/wormsegment/wormsegment (1)/wormsegment (2)/wormsegment (3)/wormsegment
      (4)/wormtailendtall
    classID: 61
    script: {fileID: 0}
  - curve:
      serializedVersion: 2
      m_Curve:
      - time: 0
        value: 1
        inSlope: Infinity
        outSlope: Infinity
        tangentMode: 31
      - time: 0.5
        value: 0
        inSlope: Infinity
        outSlope: Infinity
        tangentMode: 31
      m_PreInfinity: 2
      m_PostInfinity: 2
      m_RotationOrder: 4
    attribute: m_Enabled
    path: Crash
    classID: 82
    script: {fileID: 0}
  m_EulerEditorCurves:
  - curve:
      serializedVersion: 2
      m_Curve: []
      m_PreInfinity: 2
      m_PostInfinity: 2
      m_RotationOrder: 4
    attribute: m_LocalEulerAngles.x
    path: W_Vuln1
    classID: 4
    script: {fileID: 0}
  - curve:
      serializedVersion: 2
      m_Curve: []
      m_PreInfinity: 2
      m_PostInfinity: 2
      m_RotationOrder: 4
    attribute: m_LocalEulerAngles.y
    path: W_Vuln1
    classID: 4
    script: {fileID: 0}
  - curve:
      serializedVersion: 2
      m_Curve: []
      m_PreInfinity: 2
      m_PostInfinity: 2
      m_RotationOrder: 4
    attribute: m_LocalEulerAngles.z
    path: W_Vuln1
    classID: 4
    script: {fileID: 0}
  - curve:
      serializedVersion: 2
      m_Curve: []
      m_PreInfinity: 2
      m_PostInfinity: 2
      m_RotationOrder: 4
    attribute: m_LocalEulerAngles.x
    path: W_Vuln1/wormsegment
    classID: 4
    script: {fileID: 0}
  - curve:
      serializedVersion: 2
      m_Curve: []
      m_PreInfinity: 2
      m_PostInfinity: 2
      m_RotationOrder: 4
    attribute: m_LocalEulerAngles.y
    path: W_Vuln1/wormsegment
    classID: 4
    script: {fileID: 0}
  - curve:
      serializedVersion: 2
      m_Curve: []
      m_PreInfinity: 2
      m_PostInfinity: 2
      m_RotationOrder: 4
    attribute: m_LocalEulerAngles.z
    path: W_Vuln1/wormsegment
    classID: 4
    script: {fileID: 0}
  - curve:
      serializedVersion: 2
      m_Curve: []
      m_PreInfinity: 2
      m_PostInfinity: 2
      m_RotationOrder: 4
    attribute: m_LocalEulerAngles.x
    path: W_Vuln1/wormsegment/wormsegment (1)
    classID: 4
    script: {fileID: 0}
  - curve:
      serializedVersion: 2
      m_Curve: []
      m_PreInfinity: 2
      m_PostInfinity: 2
      m_RotationOrder: 4
    attribute: m_LocalEulerAngles.y
    path: W_Vuln1/wormsegment/wormsegment (1)
    classID: 4
    script: {fileID: 0}
  - curve:
      serializedVersion: 2
      m_Curve: []
      m_PreInfinity: 2
      m_PostInfinity: 2
      m_RotationOrder: 4
    attribute: m_LocalEulerAngles.z
    path: W_Vuln1/wormsegment/wormsegment (1)
    classID: 4
    script: {fileID: 0}
  - curve:
      serializedVersion: 2
      m_Curve: []
      m_PreInfinity: 2
      m_PostInfinity: 2
      m_RotationOrder: 4
    attribute: m_LocalEulerAngles.x
    path: W_Vuln1/wormsegment/wormsegment (1)/wormsegment (2)
    classID: 4
    script: {fileID: 0}
  - curve:
      serializedVersion: 2
      m_Curve: []
      m_PreInfinity: 2
      m_PostInfinity: 2
      m_RotationOrder: 4
    attribute: m_LocalEulerAngles.y
    path: W_Vuln1/wormsegment/wormsegment (1)/wormsegment (2)
    classID: 4
    script: {fileID: 0}
  - curve:
      serializedVersion: 2
      m_Curve: []
      m_PreInfinity: 2
      m_PostInfinity: 2
      m_RotationOrder: 4
    attribute: m_LocalEulerAngles.z
    path: W_Vuln1/wormsegment/wormsegment (1)/wormsegment (2)
    classID: 4
    script: {fileID: 0}
  - curve:
      serializedVersion: 2
      m_Curve: []
      m_PreInfinity: 2
      m_PostInfinity: 2
      m_RotationOrder: 4
    attribute: m_LocalEulerAngles.x
    path: W_Vuln1/wormsegment/wormsegment (1)/wormsegment (2)/wormsegment (3)
    classID: 4
    script: {fileID: 0}
  - curve:
      serializedVersion: 2
      m_Curve: []
      m_PreInfinity: 2
      m_PostInfinity: 2
      m_RotationOrder: 4
    attribute: m_LocalEulerAngles.y
    path: W_Vuln1/wormsegment/wormsegment (1)/wormsegment (2)/wormsegment (3)
    classID: 4
    script: {fileID: 0}
  - curve:
      serializedVersion: 2
      m_Curve: []
      m_PreInfinity: 2
      m_PostInfinity: 2
      m_RotationOrder: 4
    attribute: m_LocalEulerAngles.z
    path: W_Vuln1/wormsegment/wormsegment (1)/wormsegment (2)/wormsegment (3)
    classID: 4
    script: {fileID: 0}
  - curve:
      serializedVersion: 2
      m_Curve: []
      m_PreInfinity: 2
      m_PostInfinity: 2
      m_RotationOrder: 4
    attribute: m_LocalEulerAngles.x
    path: W_Vuln1/wormsegment/wormsegment (1)/wormsegment (2)/wormsegment (3)/wormsegment
      (4)
    classID: 4
    script: {fileID: 0}
  - curve:
      serializedVersion: 2
      m_Curve: []
      m_PreInfinity: 2
      m_PostInfinity: 2
      m_RotationOrder: 4
    attribute: m_LocalEulerAngles.y
    path: W_Vuln1/wormsegment/wormsegment (1)/wormsegment (2)/wormsegment (3)/wormsegment
      (4)
    classID: 4
    script: {fileID: 0}
  - curve:
      serializedVersion: 2
      m_Curve: []
      m_PreInfinity: 2
      m_PostInfinity: 2
      m_RotationOrder: 4
    attribute: m_LocalEulerAngles.z
    path: W_Vuln1/wormsegment/wormsegment (1)/wormsegment (2)/wormsegment (3)/wormsegment
      (4)
    classID: 4
    script: {fileID: 0}
  - curve:
      serializedVersion: 2
      m_Curve: []
      m_PreInfinity: 2
      m_PostInfinity: 2
      m_RotationOrder: 4
    attribute: m_LocalEulerAngles.x
    path: W_Vuln1/wormsegment/wormsegment (1)/wormsegment (2)/wormsegment (3)/wormsegment
      (4)/wormtailendtall
    classID: 4
    script: {fileID: 0}
  - curve:
      serializedVersion: 2
      m_Curve: []
      m_PreInfinity: 2
      m_PostInfinity: 2
      m_RotationOrder: 4
    attribute: m_LocalEulerAngles.y
    path: W_Vuln1/wormsegment/wormsegment (1)/wormsegment (2)/wormsegment (3)/wormsegment
      (4)/wormtailendtall
    classID: 4
    script: {fileID: 0}
  - curve:
      serializedVersion: 2
      m_Curve: []
      m_PreInfinity: 2
      m_PostInfinity: 2
      m_RotationOrder: 4
    attribute: m_LocalEulerAngles.z
    path: W_Vuln1/wormsegment/wormsegment (1)/wormsegment (2)/wormsegment (3)/wormsegment
      (4)/wormtailendtall
    classID: 4
    script: {fileID: 0}
  m_HasGenericRootTransform: 0
  m_HasMotionFloatCurves: 0
  m_GenerateMotionCurves: 0
  m_Events: []
