%YAML 1.1
%TAG !u! tag:unity3d.com,2011:
--- !u!74 &7400000
AnimationClip:
  m_ObjectHideFlags: 0
  m_PrefabParentObject: {fileID: 0}
  m_PrefabInternal: {fileID: 0}
  m_Name: Boss_Attck1
  serializedVersion: 6
  m_Legacy: 0
  m_Compressed: 0
  m_UseHighQualityCurve: 1
  m_RotationCurves: []
  m_CompressedRotationCurves: []
  m_EulerCurves: []
  m_PositionCurves:
  - curve:
      serializedVersion: 2
      m_Curve:
      - time: 0
        value: {x: 19.36, y: 23.42, z: 0}
        inSlope: {x: -221.20001, y: -282.4, z: 0}
        outSlope: {x: -221.20001, y: -282.4, z: 0}
        tangentMode: 0
      - time: 0.05
        value: {x: 8.3, y: 9.3, z: 0}
        inSlope: {x: -110.600006, y: -141.2, z: 0}
        outSlope: {x: -110.600006, y: -141.2, z: 0}
        tangentMode: 0
      - time: 0.11666667
        value: {x: 8.3, y: 9.3, z: 0}
        inSlope: {x: 0, y: 0, z: 0}
        outSlope: {x: 0, y: 0, z: 0}
        tangentMode: 0
      - time: 0.16666667
        value: {x: 8.3, y: 9.3, z: 0}
        inSlope: {x: 0, y: 0, z: 0}
        outSlope: {x: 0, y: 0, z: 0}
        tangentMode: 0
      - time: 0.46666667
        value: {x: 8.3, y: 9.3, z: 0}
        inSlope: {x: -22.153847, y: -26.134615, z: 0}
        outSlope: {x: -22.153847, y: -26.134615, z: 0}
        tangentMode: 0
      - time: 1.3333334
        value: {x: -30.1, y: -36, z: 0}
        inSlope: {x: -44.307693, y: -52.26923, z: 0}
        outSlope: {x: -44.307693, y: -52.26923, z: 0}
        tangentMode: 0
      m_PreInfinity: 2
      m_PostInfinity: 2
      m_RotationOrder: 4
    path: W_Attack1
  - curve:
      serializedVersion: 2
      m_Curve:
      - time: 0
        value: {x: 17.05, y: -20.480001, z: 0}
        inSlope: {x: 0, y: 0.14210701, z: 0}
        outSlope: {x: 0, y: 0.14210701, z: 0}
        tangentMode: 0
      - time: 1.2666667
        value: {x: 17.05, y: -20.3, z: 0}
        inSlope: {x: -17.249998, y: 22.142479, z: 0}
        outSlope: {x: -17.249998, y: 22.142479, z: 0}
        tangentMode: 0
      - time: 1.5
        value: {x: 9, y: -10, z: 0}
        inSlope: {x: -17.249998, y: 22.071424, z: 0}
        outSlope: {x: -17.249998, y: 22.071424, z: 0}
        tangentMode: 0
      - time: 1.6666666
        value: {x: 9, y: -10, z: 0}
        inSlope: {x: -14.542371, y: 23.033895, z: 0}
        outSlope: {x: -14.542371, y: 23.033895, z: 0}
        tangentMode: 0
      - time: 2.65
        value: {x: -19.6, y: 35.3, z: 0}
        inSlope: {x: -29.084742, y: 46.06779, z: 0}
        outSlope: {x: -29.084742, y: 46.06779, z: 0}
        tangentMode: 0
      m_PreInfinity: 2
      m_PostInfinity: 2
      m_RotationOrder: 4
    path: W_Attack3
  - curve:
      serializedVersion: 2
      m_Curve:
      - time: 0
        value: {x: -16.15, y: 23.019999, z: 0}
        inSlope: {x: 2.0463574, y: -2.6304631, z: 0}
        outSlope: {x: 2.0463574, y: -2.6304631, z: 0}
        tangentMode: 0
      - time: 2.5166667
        value: {x: -11, y: 16.4, z: 0}
        inSlope: {x: 11.023182, y: -12.458091, z: 0}
        outSlope: {x: 11.023182, y: -12.458091, z: 0}
        tangentMode: 0
      - time: 2.8666666
        value: {x: -4, y: 8.6, z: 0}
        inSlope: {x: 10.000003, y: -11.142859, z: 0}
        outSlope: {x: 10.000003, y: -11.142859, z: 0}
        tangentMode: 0
      - time: 3.0833333
        value: {x: -4, y: 8.6, z: 0}
        inSlope: {x: 20.072725, y: -24.109087, z: 0}
        outSlope: {x: 20.072725, y: -24.109087, z: 0}
        tangentMode: 0
      - time: 4
        value: {x: 32.8, y: -35.6, z: 0}
        inSlope: {x: 40.14545, y: -48.218174, z: 0}
        outSlope: {x: 40.14545, y: -48.218174, z: 0}
        tangentMode: 0
      m_PreInfinity: 2
      m_PostInfinity: 2
      m_RotationOrder: 4
    path: W_Attack2
  - curve:
      serializedVersion: 2
      m_Curve:
      - time: 0
        value: {x: -15.65, y: -19.78, z: 0}
        inSlope: {x: 0, y: 0.07000017, z: 0}
        outSlope: {x: 0, y: 0.07000017, z: 0}
        tangentMode: 0
      - time: 4
        value: {x: -15.65, y: -19.5, z: 0}
        inSlope: {x: 15.441178, y: 18.211473, z: 0}
        outSlope: {x: 15.441178, y: 18.211473, z: 0}
        tangentMode: 0
      - time: 4.2833333
        value: {x: -6.9, y: -9.2, z: 0}
        inSlope: {x: 15.441178, y: 18.176474, z: 0}
        outSlope: {x: 15.441178, y: 18.176474, z: 0}
        tangentMode: 0
      - time: 4.5333333
        value: {x: -6.9, y: -9.2, z: 0}
        inSlope: {x: 13.140844, y: 18.380281, z: 0}
        outSlope: {x: 13.140844, y: 18.380281, z: 0}
        tangentMode: 0
      - time: 5.7166667
        value: {x: 24.2, y: 34.3, z: 0}
        inSlope: {x: 26.281689, y: 36.760563, z: 0}
        outSlope: {x: 26.281689, y: 36.760563, z: 0}
        tangentMode: 0
      m_PreInfinity: 2
      m_PostInfinity: 2
      m_RotationOrder: 4
    path: W_Attack4
  m_ScaleCurves: []
  m_FloatCurves:
  - curve:
      serializedVersion: 2
      m_Curve:
      - time: 0
        value: 1
        inSlope: Infinity
        outSlope: Infinity
        tangentMode: 31
      - time: 1.2666667
        value: 0
        inSlope: Infinity
        outSlope: Infinity
        tangentMode: 31
      - time: 5.7166667
        value: 0
        inSlope: Infinity
        outSlope: Infinity
        tangentMode: 31
      m_PreInfinity: 2
      m_PostInfinity: 2
      m_RotationOrder: 4
    attribute: m_IsActive
    path: W_Attack1
    classID: 1
    script: {fileID: 0}
  - curve:
      serializedVersion: 2
      m_Curve:
      - time: 0
        value: 1
        inSlope: Infinity
        outSlope: Infinity
        tangentMode: 31
      - time: 4
        value: 0
        inSlope: Infinity
        outSlope: Infinity
        tangentMode: 31
      - time: 5.7166667
        value: 0
        inSlope: Infinity
        outSlope: Infinity
        tangentMode: 31
      m_PreInfinity: 2
      m_PostInfinity: 2
      m_RotationOrder: 4
    attribute: m_IsActive
    path: W_Attack2
    classID: 1
    script: {fileID: 0}
  - curve:
      serializedVersion: 2
      m_Curve:
      - time: 0
        value: 1
        inSlope: Infinity
        outSlope: Infinity
        tangentMode: 31
      - time: 2.6666667
        value: 0
        inSlope: Infinity
        outSlope: Infinity
        tangentMode: 31
      - time: 5.7166667
        value: 0
        inSlope: Infinity
        outSlope: Infinity
        tangentMode: 31
      m_PreInfinity: 2
      m_PostInfinity: 2
      m_RotationOrder: 4
    attribute: m_IsActive
    path: W_Attack3
    classID: 1
    script: {fileID: 0}
  - curve:
      serializedVersion: 2
      m_Curve:
      - time: 0
        value: 1
        inSlope: Infinity
        outSlope: Infinity
        tangentMode: 31
      - time: 5.6666665
        value: 0
        inSlope: Infinity
        outSlope: Infinity
        tangentMode: 31
      - time: 5.7166667
        value: 0
        inSlope: Infinity
        outSlope: Infinity
        tangentMode: 31
      m_PreInfinity: 2
      m_PostInfinity: 2
      m_RotationOrder: 4
    attribute: m_IsActive
    path: W_Attack4
    classID: 1
    script: {fileID: 0}
  - curve:
      serializedVersion: 2
      m_Curve:
      - time: 0
        value: 1
        inSlope: Infinity
        outSlope: Infinity
        tangentMode: 31
      - time: 0.46666667
        value: 0
        inSlope: Infinity
        outSlope: Infinity
        tangentMode: 31
      - time: 1.4
        value: 1
        inSlope: Infinity
        outSlope: Infinity
        tangentMode: 31
      - time: 1.7166667
        value: 0
        inSlope: Infinity
        outSlope: Infinity
        tangentMode: 31
      - time: 2.65
        value: 1
        inSlope: Infinity
        outSlope: Infinity
        tangentMode: 31
      - time: 3.0833333
        value: 0
        inSlope: Infinity
        outSlope: Infinity
        tangentMode: 31
      - time: 4.116667
        value: 1
        inSlope: Infinity
        outSlope: Infinity
        tangentMode: 31
      - time: 4.516667
        value: 0
        inSlope: Infinity
        outSlope: Infinity
        tangentMode: 31
      - time: 5.7166667
        value: 0
        inSlope: Infinity
        outSlope: Infinity
        tangentMode: 31
      m_PreInfinity: 2
      m_PostInfinity: 2
      m_RotationOrder: 4
    attribute: m_Enabled
    path: 
    classID: 114
    script: {fileID: 11500000, guid: c7ebbb7f5fe235141aa4498f747f8a01, type: 3}
  - curve:
      serializedVersion: 2
      m_Curve:
      - time: 0
        value: 1
        inSlope: Infinity
        outSlope: Infinity
        tangentMode: 31
      - time: 1.2
        value: 0
        inSlope: Infinity
        outSlope: Infinity
        tangentMode: 31
      - time: 1.3333334
        value: 1
        inSlope: Infinity
        outSlope: Infinity
        tangentMode: 31
      - time: 2.5666666
        value: 0
        inSlope: Infinity
        outSlope: Infinity
        tangentMode: 31
      - time: 2.6
        value: 1
        inSlope: Infinity
        outSlope: Infinity
        tangentMode: 31
      - time: 4.05
        value: 0
        inSlope: Infinity
        outSlope: Infinity
        tangentMode: 31
      - time: 4.133333
        value: 1
        inSlope: Infinity
        outSlope: Infinity
        tangentMode: 31
      - time: 5.7166667
        value: 0
        inSlope: Infinity
        outSlope: Infinity
        tangentMode: 31
      m_PreInfinity: 2
      m_PostInfinity: 2
      m_RotationOrder: 4
    attribute: m_Enabled
    path: BreakSound
    classID: 82
    script: {fileID: 0}
  m_PPtrCurves: []
  m_SampleRate: 60
  m_WrapMode: 0
  m_Bounds:
    m_Center: {x: 0, y: 0, z: 0}
    m_Extent: {x: 0, y: 0, z: 0}
  m_ClipBindingConstant:
    genericBindings:
    - path: 478017831
      attribute: 1
      script: {fileID: 0}
      classID: 4
      customType: 0
      isPPtrCurve: 0
    - path: 4067661835
      attribute: 1
      script: {fileID: 0}
      classID: 4
      customType: 0
      isPPtrCurve: 0
    - path: 2239015069
      attribute: 1
      script: {fileID: 0}
      classID: 4
      customType: 0
      isPPtrCurve: 0
    - path: 1813450152
      attribute: 1
      script: {fileID: 0}
      classID: 4
      customType: 0
      isPPtrCurve: 0
    - path: 478017831
      attribute: 2086281974
      script: {fileID: 0}
      classID: 1
      customType: 0
      isPPtrCurve: 0
    - path: 2239015069
      attribute: 2086281974
      script: {fileID: 0}
      classID: 1
      customType: 0
      isPPtrCurve: 0
    - path: 4067661835
      attribute: 2086281974
      script: {fileID: 0}
      classID: 1
      customType: 0
      isPPtrCurve: 0
    - path: 1813450152
      attribute: 2086281974
      script: {fileID: 0}
      classID: 1
      customType: 0
      isPPtrCurve: 0
    - path: 0
      attribute: 3305885265
      script: {fileID: 11500000, guid: c7ebbb7f5fe235141aa4498f747f8a01, type: 3}
      classID: 114
      customType: 24
      isPPtrCurve: 0
    - path: 2399426866
      attribute: 3305885265
      script: {fileID: 0}
      classID: 82
      customType: 0
      isPPtrCurve: 0
    pptrCurveMapping: []
  m_AnimationClipSettings:
    serializedVersion: 2
    m_AdditiveReferencePoseClip: {fileID: 0}
    m_AdditiveReferencePoseTime: 0
    m_StartTime: 0
    m_StopTime: 5.7166667
    m_OrientationOffsetY: 0
    m_Level: 0
    m_CycleOffset: 0
    m_HasAdditiveReferencePose: 0
    m_LoopTime: 0
    m_LoopBlend: 0
    m_LoopBlendOrientation: 0
    m_LoopBlendPositionY: 0
    m_LoopBlendPositionXZ: 0
    m_KeepOriginalOrientation: 0
    m_KeepOriginalPositionY: 1
    m_KeepOriginalPositionXZ: 0
    m_HeightFromFeet: 0
    m_Mirror: 0
  m_EditorCurves:
  - curve:
      serializedVersion: 2
      m_Curve:
      - time: 0
        value: 19.36
        inSlope: -221.20001
        outSlope: -221.20001
        tangentMode: 10
      - time: 0.05
        value: 8.3
        inSlope: -110.600006
        outSlope: -110.600006
        tangentMode: 10
      - time: 0.11666667
        value: 8.3
        inSlope: 0
        outSlope: 0
        tangentMode: 10
      - time: 0.16666667
        value: 8.3
        inSlope: 0
        outSlope: 0
        tangentMode: 10
      - time: 0.46666667
        value: 8.3
        inSlope: -22.153847
        outSlope: -22.153847
        tangentMode: 10
      - time: 1.3333334
        value: -30.1
        inSlope: -44.307693
        outSlope: -44.307693
        tangentMode: 10
      m_PreInfinity: 2
      m_PostInfinity: 2
      m_RotationOrder: 4
    attribute: m_LocalPosition.x
    path: W_Attack1
    classID: 4
    script: {fileID: 0}
  - curve:
      serializedVersion: 2
      m_Curve:
      - time: 0
        value: 23.42
        inSlope: -282.4
        outSlope: -282.4
        tangentMode: 10
      - time: 0.05
        value: 9.3
        inSlope: -141.2
        outSlope: -141.2
        tangentMode: 10
      - time: 0.11666667
        value: 9.3
        inSlope: 0
        outSlope: 0
        tangentMode: 10
      - time: 0.16666667
        value: 9.3
        inSlope: 0
        outSlope: 0
        tangentMode: 10
      - time: 0.46666667
        value: 9.3
        inSlope: -26.134615
        outSlope: -26.134615
        tangentMode: 10
      - time: 1.3333334
        value: -36
        inSlope: -52.26923
        outSlope: -52.26923
        tangentMode: 10
      m_PreInfinity: 2
      m_PostInfinity: 2
      m_RotationOrder: 4
    attribute: m_LocalPosition.y
    path: W_Attack1
    classID: 4
    script: {fileID: 0}
  - curve:
      serializedVersion: 2
      m_Curve:
      - time: 0
        value: 0
        inSlope: 0
        outSlope: 0
        tangentMode: 10
      - time: 0.05
        value: 0
        inSlope: 0
        outSlope: 0
        tangentMode: 10
      - time: 0.11666667
        value: 0
        inSlope: 0
        outSlope: 0
        tangentMode: 10
      - time: 0.16666667
        value: 0
        inSlope: 0
        outSlope: 0
        tangentMode: 10
      - time: 0.46666667
        value: 0
        inSlope: 0
        outSlope: 0
        tangentMode: 10
      - time: 1.3333334
        value: 0
        inSlope: 0
        outSlope: 0
        tangentMode: 10
      m_PreInfinity: 2
      m_PostInfinity: 2
      m_RotationOrder: 4
    attribute: m_LocalPosition.z
    path: W_Attack1
    classID: 4
    script: {fileID: 0}
  - curve:
      serializedVersion: 2
      m_Curve:
      - time: 0
        value: 17.05
        inSlope: 0
        outSlope: 0
        tangentMode: 10
      - time: 1.2666667
        value: 17.05
        inSlope: -17.249998
        outSlope: -17.249998
        tangentMode: 10
      - time: 1.5
        value: 9
        inSlope: -17.249998
        outSlope: -17.249998
        tangentMode: 10
      - time: 1.6666666
        value: 9
        inSlope: -14.542371
        outSlope: -14.542371
        tangentMode: 10
      - time: 2.65
        value: -19.6
        inSlope: -29.084742
        outSlope: -29.084742
        tangentMode: 10
      m_PreInfinity: 2
      m_PostInfinity: 2
      m_RotationOrder: 4
    attribute: m_LocalPosition.x
    path: W_Attack3
    classID: 4
    script: {fileID: 0}
  - curve:
      serializedVersion: 2
      m_Curve:
      - time: 0
        value: -20.480001
        inSlope: 0.14210701
        outSlope: 0.14210701
        tangentMode: 10
      - time: 1.2666667
        value: -20.3
        inSlope: 22.142479
        outSlope: 22.142479
        tangentMode: 10
      - time: 1.5
        value: -10
        inSlope: 22.071424
        outSlope: 22.071424
        tangentMode: 10
      - time: 1.6666666
        value: -10
        inSlope: 23.033895
        outSlope: 23.033895
        tangentMode: 10
      - time: 2.65
        value: 35.3
        inSlope: 46.06779
        outSlope: 46.06779
        tangentMode: 10
      m_PreInfinity: 2
      m_PostInfinity: 2
      m_RotationOrder: 4
    attribute: m_LocalPosition.y
    path: W_Attack3
    classID: 4
    script: {fileID: 0}
  - curve:
      serializedVersion: 2
      m_Curve:
      - time: 0
        value: 0
        inSlope: 0
        outSlope: 0
        tangentMode: 10
      - time: 1.2666667
        value: 0
        inSlope: 0
        outSlope: 0
        tangentMode: 10
      - time: 1.5
        value: 0
        inSlope: 0
        outSlope: 0
        tangentMode: 10
      - time: 1.6666666
        value: 0
        inSlope: 0
        outSlope: 0
        tangentMode: 10
      - time: 2.65
        value: 0
        inSlope: 0
        outSlope: 0
        tangentMode: 10
      m_PreInfinity: 2
      m_PostInfinity: 2
      m_RotationOrder: 4
    attribute: m_LocalPosition.z
    path: W_Attack3
    classID: 4
    script: {fileID: 0}
  - curve:
      serializedVersion: 2
      m_Curve:
      - time: 0
        value: -16.15
        inSlope: 2.0463574
        outSlope: 2.0463574
        tangentMode: 10
      - time: 2.5166667
        value: -11
        inSlope: 11.023182
        outSlope: 11.023182
        tangentMode: 10
      - time: 2.8666666
        value: -4
        inSlope: 10.000003
        outSlope: 10.000003
        tangentMode: 10
      - time: 3.0833333
        value: -4
        inSlope: 20.072725
        outSlope: 20.072725
        tangentMode: 10
      - time: 4
        value: 32.8
        inSlope: 40.14545
        outSlope: 40.14545
        tangentMode: 10
      m_PreInfinity: 2
      m_PostInfinity: 2
      m_RotationOrder: 4
    attribute: m_LocalPosition.x
    path: W_Attack2
    classID: 4
    script: {fileID: 0}
  - curve:
      serializedVersion: 2
      m_Curve:
      - time: 0
        value: 23.019999
        inSlope: -2.6304631
        outSlope: -2.6304631
        tangentMode: 10
      - time: 2.5166667
        value: 16.4
        inSlope: -12.458091
        outSlope: -12.458091
        tangentMode: 10
      - time: 2.8666666
        value: 8.6
        inSlope: -11.142859
        outSlope: -11.142859
        tangentMode: 10
      - time: 3.0833333
        value: 8.6
        inSlope: -24.109087
        outSlope: -24.109087
        tangentMode: 10
      - time: 4
        value: -35.6
        inSlope: -48.218174
        outSlope: -48.218174
        tangentMode: 10
      m_PreInfinity: 2
      m_PostInfinity: 2
      m_RotationOrder: 4
    attribute: m_LocalPosition.y
    path: W_Attack2
    classID: 4
    script: {fileID: 0}
  - curve:
      serializedVersion: 2
      m_Curve:
      - time: 0
        value: 0
        inSlope: 0
        outSlope: 0
        tangentMode: 10
      - time: 2.5166667
        value: 0
        inSlope: 0
        outSlope: 0
        tangentMode: 10
      - time: 2.8666666
        value: 0
        inSlope: 0
        outSlope: 0
        tangentMode: 10
      - time: 3.0833333
        value: 0
        inSlope: 0
        outSlope: 0
        tangentMode: 10
      - time: 4
        value: 0
        inSlope: 0
        outSlope: 0
        tangentMode: 10
      m_PreInfinity: 2
      m_PostInfinity: 2
      m_RotationOrder: 4
    attribute: m_LocalPosition.z
    path: W_Attack2
    classID: 4
    script: {fileID: 0}
  - curve:
      serializedVersion: 2
      m_Curve:
      - time: 0
        value: -15.65
        inSlope: 0
        outSlope: 0
        tangentMode: 10
      - time: 4
        value: -15.65
        inSlope: 15.441178
        outSlope: 15.441178
        tangentMode: 10
      - time: 4.2833333
        value: -6.9
        inSlope: 15.441178
        outSlope: 15.441178
        tangentMode: 10
      - time: 4.5333333
        value: -6.9
        inSlope: 13.140844
        outSlope: 13.140844
        tangentMode: 10
      - time: 5.7166667
        value: 24.2
        inSlope: 26.281689
        outSlope: 26.281689
        tangentMode: 10
      m_PreInfinity: 2
      m_PostInfinity: 2
      m_RotationOrder: 4
    attribute: m_LocalPosition.x
    path: W_Attack4
    classID: 4
    script: {fileID: 0}
  - curve:
      serializedVersion: 2
      m_Curve:
      - time: 0
        value: -19.78
        inSlope: 0.07000017
        outSlope: 0.07000017
        tangentMode: 10
      - time: 4
        value: -19.5
        inSlope: 18.211473
        outSlope: 18.211473
        tangentMode: 10
      - time: 4.2833333
        value: -9.2
        inSlope: 18.176474
        outSlope: 18.176474
        tangentMode: 10
      - time: 4.5333333
        value: -9.2
        inSlope: 18.380281
        outSlope: 18.380281
        tangentMode: 10
      - time: 5.7166667
        value: 34.3
        inSlope: 36.760563
        outSlope: 36.760563
        tangentMode: 10
      m_PreInfinity: 2
      m_PostInfinity: 2
      m_RotationOrder: 4
    attribute: m_LocalPosition.y
    path: W_Attack4
    classID: 4
    script: {fileID: 0}
  - curve:
      serializedVersion: 2
      m_Curve:
      - time: 0
        value: 0
        inSlope: 0
        outSlope: 0
        tangentMode: 10
      - time: 4
        value: 0
        inSlope: 0
        outSlope: 0
        tangentMode: 10
      - time: 4.2833333
        value: 0
        inSlope: 0
        outSlope: 0
        tangentMode: 10
      - time: 4.5333333
        value: 0
        inSlope: 0
        outSlope: 0
        tangentMode: 10
      - time: 5.7166667
        value: 0
        inSlope: 0
        outSlope: 0
        tangentMode: 10
      m_PreInfinity: 2
      m_PostInfinity: 2
      m_RotationOrder: 4
    attribute: m_LocalPosition.z
    path: W_Attack4
    classID: 4
    script: {fileID: 0}
  - curve:
      serializedVersion: 2
      m_Curve:
      - time: 0
        value: 1
        inSlope: Infinity
        outSlope: Infinity
        tangentMode: 31
      - time: 1.2666667
        value: 0
        inSlope: Infinity
        outSlope: Infinity
        tangentMode: 31
      - time: 5.7166667
        value: 0
        inSlope: Infinity
        outSlope: Infinity
        tangentMode: 31
      m_PreInfinity: 2
      m_PostInfinity: 2
      m_RotationOrder: 4
    attribute: m_IsActive
    path: W_Attack1
    classID: 1
    script: {fileID: 0}
  - curve:
      serializedVersion: 2
      m_Curve:
      - time: 0
        value: 1
        inSlope: Infinity
        outSlope: Infinity
        tangentMode: 31
      - time: 4
        value: 0
        inSlope: Infinity
        outSlope: Infinity
        tangentMode: 31
      - time: 5.7166667
        value: 0
        inSlope: Infinity
        outSlope: Infinity
        tangentMode: 31
      m_PreInfinity: 2
      m_PostInfinity: 2
      m_RotationOrder: 4
    attribute: m_IsActive
    path: W_Attack2
    classID: 1
    script: {fileID: 0}
  - curve:
      serializedVersion: 2
      m_Curve:
      - time: 0
        value: 1
        inSlope: Infinity
        outSlope: Infinity
        tangentMode: 31
      - time: 2.6666667
        value: 0
        inSlope: Infinity
        outSlope: Infinity
        tangentMode: 31
      - time: 5.7166667
        value: 0
        inSlope: Infinity
        outSlope: Infinity
        tangentMode: 31
      m_PreInfinity: 2
      m_PostInfinity: 2
      m_RotationOrder: 4
    attribute: m_IsActive
    path: W_Attack3
    classID: 1
    script: {fileID: 0}
  - curve:
      serializedVersion: 2
      m_Curve:
      - time: 0
        value: 1
        inSlope: Infinity
        outSlope: Infinity
        tangentMode: 31
      - time: 5.6666665
        value: 0
        inSlope: Infinity
        outSlope: Infinity
        tangentMode: 31
      - time: 5.7166667
        value: 0
        inSlope: Infinity
        outSlope: Infinity
        tangentMode: 31
      m_PreInfinity: 2
      m_PostInfinity: 2
      m_RotationOrder: 4
    attribute: m_IsActive
    path: W_Attack4
    classID: 1
    script: {fileID: 0}
  - curve:
      serializedVersion: 2
      m_Curve:
      - time: 0
        value: 1
        inSlope: Infinity
        outSlope: Infinity
        tangentMode: 31
      - time: 0.46666667
        value: 0
        inSlope: Infinity
        outSlope: Infinity
        tangentMode: 31
      - time: 1.4
        value: 1
        inSlope: Infinity
        outSlope: Infinity
        tangentMode: 31
      - time: 1.7166667
        value: 0
        inSlope: Infinity
        outSlope: Infinity
        tangentMode: 31
      - time: 2.65
        value: 1
        inSlope: Infinity
        outSlope: Infinity
        tangentMode: 31
      - time: 3.0833333
        value: 0
        inSlope: Infinity
        outSlope: Infinity
        tangentMode: 31
      - time: 4.116667
        value: 1
        inSlope: Infinity
        outSlope: Infinity
        tangentMode: 31
      - time: 4.516667
        value: 0
        inSlope: Infinity
        outSlope: Infinity
        tangentMode: 31
      - time: 5.7166667
        value: 0
        inSlope: Infinity
        outSlope: Infinity
        tangentMode: 31
      m_PreInfinity: 2
      m_PostInfinity: 2
      m_RotationOrder: 4
    attribute: m_Enabled
    path: 
    classID: 114
    script: {fileID: 11500000, guid: c7ebbb7f5fe235141aa4498f747f8a01, type: 3}
  - curve:
      serializedVersion: 2
      m_Curve:
      - time: 0
        value: 1
        inSlope: Infinity
        outSlope: Infinity
        tangentMode: 31
      - time: 1.2
        value: 0
        inSlope: Infinity
        outSlope: Infinity
        tangentMode: 31
      - time: 1.3333334
        value: 1
        inSlope: Infinity
        outSlope: Infinity
        tangentMode: 31
      - time: 2.5666666
        value: 0
        inSlope: Infinity
        outSlope: Infinity
        tangentMode: 31
      - time: 2.6
        value: 1
        inSlope: Infinity
        outSlope: Infinity
        tangentMode: 31
      - time: 4.05
        value: 0
        inSlope: Infinity
        outSlope: Infinity
        tangentMode: 31
      - time: 4.133333
        value: 1
        inSlope: Infinity
        outSlope: Infinity
        tangentMode: 31
      - time: 5.7166667
        value: 0
        inSlope: Infinity
        outSlope: Infinity
        tangentMode: 31
      m_PreInfinity: 2
      m_PostInfinity: 2
      m_RotationOrder: 4
    attribute: m_Enabled
    path: BreakSound
    classID: 82
    script: {fileID: 0}
  m_EulerEditorCurves: []
  m_HasGenericRootTransform: 0
  m_HasMotionFloatCurves: 0
  m_GenerateMotionCurves: 0
  m_Events: []
