%YAML 1.1
%TAG !u! tag:unity3d.com,2011:
--- !u!74 &7400000
AnimationClip:
  m_ObjectHideFlags: 0
  m_PrefabParentObject: {fileID: 0}
  m_PrefabInternal: {fileID: 0}
  m_Name: Move
  serializedVersion: 6
  m_Legacy: 0
  m_Compressed: 0
  m_UseHighQualityCurve: 1
  m_RotationCurves: []
  m_CompressedRotationCurves: []
  m_EulerCurves: []
  m_PositionCurves:
  - curve:
      serializedVersion: 2
      m_Curve:
      - time: 0
        value: {x: 0, y: 0, z: 0}
        inSlope: {x: -1.9226694, y: 0, z: 0}
        outSlope: {x: -1.9226694, y: 0, z: 0}
        tangentMode: 0
      - time: 15.733334
        value: {x: -30.25, y: 0, z: 0}
        inSlope: {x: -0.57340366, y: 0, z: 0}
        outSlope: {x: -0.57340366, y: 0, z: 0}
        tangentMode: 0
      - time: 22.5
        value: {x: -25, y: 0, z: 0}
        inSlope: {x: 1586.812, y: 0, z: 0}
        outSlope: {x: 1586.812, y: 0, z: 0}
        tangentMode: 0
      - time: 22.516666
        value: {x: 27.88, y: 0, z: 0}
        inSlope: {x: 1587.3733, y: 0, z: 0}
        outSlope: {x: 1587.3733, y: 0, z: 0}
        tangentMode: 0
      - time: 26.583334
        value: {x: 35.6, y: 0, z: 0}
        inSlope: {x: -1.1531824, y: 0, z: 0}
        outSlope: {x: -1.1531824, y: 0, z: 0}
        tangentMode: 0
      - time: 35.05
        value: {x: 0, y: 0, z: 0}
        inSlope: {x: -4.204725, y: 0, z: 0}
        outSlope: {x: -4.204725, y: 0, z: 0}
        tangentMode: 0
      m_PreInfinity: 2
      m_PostInfinity: 2
      m_RotationOrder: 4
    path: Fog
  - curve:
      serializedVersion: 2
      m_Curve:
      - time: 0
        value: {x: 12.5, y: 0, z: 0}
        inSlope: {x: -1.8168888, y: 0, z: 0}
        outSlope: {x: -1.8168888, y: 0, z: 0}
        tangentMode: 0
      - time: 22.5
        value: {x: -28.38, y: 0, z: 0}
        inSlope: {x: 2.413184, y: 0, z: 0}
        outSlope: {x: 2.413184, y: 0, z: 0}
        tangentMode: 0
      - time: 29.666666
        value: {x: 19.23, y: 0, z: 0}
        inSlope: {x: 2.6965508, y: 0, z: 0}
        outSlope: {x: 2.6965508, y: 0, z: 0}
        tangentMode: 0
      - time: 35.05
        value: {x: 12.5, y: 0, z: 0}
        inSlope: {x: -1.2501547, y: 0, z: 0}
        outSlope: {x: -1.2501547, y: 0, z: 0}
        tangentMode: 0
      m_PreInfinity: 2
      m_PostInfinity: 2
      m_RotationOrder: 4
    path: Fog (1)
  - curve:
      serializedVersion: 2
      m_Curve:
      - time: 0
        value: {x: 30.52, y: 0, z: 0}
        inSlope: {x: -2.0897017, y: 0, z: 0}
        outSlope: {x: -2.0897017, y: 0, z: 0}
        tangentMode: 0
      - time: 29.616667
        value: {x: -31.37, y: 0, z: 0}
        inSlope: {x: 0.002319336, y: 0, z: 0}
        outSlope: {x: 0.002319336, y: 0, z: 0}
        tangentMode: 0
      - time: 32.266666
        value: {x: -25.82, y: 0, z: 0}
        inSlope: {x: 11.168131, y: 0, z: 0}
        outSlope: {x: 11.168131, y: 0, z: 0}
        tangentMode: 0
      - time: 35.05
        value: {x: 30.52, y: 0, z: 0}
        inSlope: {x: 20.24192, y: 0, z: 0}
        outSlope: {x: 20.24192, y: 0, z: 0}
        tangentMode: 0
      m_PreInfinity: 2
      m_PostInfinity: 2
      m_RotationOrder: 4
    path: Fog (2)
  m_ScaleCurves: []
  m_FloatCurves:
  - curve:
      serializedVersion: 2
      m_Curve:
      - time: 0
        value: 1
        inSlope: Infinity
        outSlope: Infinity
        tangentMode: 31
      - time: 22.5
        value: 0
        inSlope: Infinity
        outSlope: Infinity
        tangentMode: 31
      - time: 26.583334
        value: 1
        inSlope: Infinity
        outSlope: Infinity
        tangentMode: 31
      - time: 35.05
        value: 1
        inSlope: Infinity
        outSlope: Infinity
        tangentMode: 31
      m_PreInfinity: 2
      m_PostInfinity: 2
      m_RotationOrder: 4
    attribute: m_Enabled
    path: Fog
    classID: 212
    script: {fileID: 0}
  - curve:
      serializedVersion: 2
      m_Curve:
      - time: 0
        value: 1
        inSlope: Infinity
        outSlope: Infinity
        tangentMode: 31
      - time: 15.75
        value: 1
        inSlope: Infinity
        outSlope: Infinity
        tangentMode: 31
      - time: 18.3
        value: 0
        inSlope: Infinity
        outSlope: Infinity
        tangentMode: 31
      - time: 29.666666
        value: 0
        inSlope: Infinity
        outSlope: Infinity
        tangentMode: 31
      - time: 29.7
        value: 0
        inSlope: Infinity
        outSlope: Infinity
        tangentMode: 31
      - time: 32.3
        value: 1
        inSlope: Infinity
        outSlope: Infinity
        tangentMode: 31
      - time: 35.05
        value: 1
        inSlope: Infinity
        outSlope: Infinity
        tangentMode: 31
      m_PreInfinity: 2
      m_PostInfinity: 2
      m_RotationOrder: 4
    attribute: m_Enabled
    path: Fog (1)
    classID: 212
    script: {fileID: 0}
  - curve:
      serializedVersion: 2
      m_Curve:
      - time: 0
        value: 1
        inSlope: Infinity
        outSlope: Infinity
        tangentMode: 31
      - time: 29.633333
        value: 0
        inSlope: Infinity
        outSlope: Infinity
        tangentMode: 31
      - time: 35.033333
        value: 1
        inSlope: Infinity
        outSlope: Infinity
        tangentMode: 31
      - time: 35.05
        value: 1
        inSlope: Infinity
        outSlope: Infinity
        tangentMode: 31
      m_PreInfinity: 2
      m_PostInfinity: 2
      m_RotationOrder: 4
    attribute: m_Enabled
    path: Fog (2)
    classID: 212
    script: {fileID: 0}
  m_PPtrCurves: []
  m_SampleRate: 60
  m_WrapMode: 0
  m_Bounds:
    m_Center: {x: 0, y: 0, z: 0}
    m_Extent: {x: 0, y: 0, z: 0}
  m_ClipBindingConstant:
    genericBindings:
    - path: 3135613939
      attribute: 1
      script: {fileID: 0}
      classID: 4
      customType: 0
      isPPtrCurve: 0
    - path: 2055515735
      attribute: 1
      script: {fileID: 0}
      classID: 4
      customType: 0
      isPPtrCurve: 0
    - path: 1370094996
      attribute: 1
      script: {fileID: 0}
      classID: 4
      customType: 0
      isPPtrCurve: 0
    - path: 3135613939
      attribute: 3305885265
      script: {fileID: 0}
      classID: 212
      customType: 0
      isPPtrCurve: 0
    - path: 2055515735
      attribute: 3305885265
      script: {fileID: 0}
      classID: 212
      customType: 0
      isPPtrCurve: 0
    - path: 1370094996
      attribute: 3305885265
      script: {fileID: 0}
      classID: 212
      customType: 0
      isPPtrCurve: 0
    pptrCurveMapping: []
  m_AnimationClipSettings:
    serializedVersion: 2
    m_AdditiveReferencePoseClip: {fileID: 0}
    m_AdditiveReferencePoseTime: 0
    m_StartTime: 0
    m_StopTime: 35.05
    m_OrientationOffsetY: 0
    m_Level: 0
    m_CycleOffset: 0
    m_HasAdditiveReferencePose: 0
    m_LoopTime: 1
    m_LoopBlend: 0
    m_LoopBlendOrientation: 0
    m_LoopBlendPositionY: 0
    m_LoopBlendPositionXZ: 0
    m_KeepOriginalOrientation: 0
    m_KeepOriginalPositionY: 1
    m_KeepOriginalPositionXZ: 0
    m_HeightFromFeet: 0
    m_Mirror: 0
  m_EditorCurves:
  - curve:
      serializedVersion: 2
      m_Curve:
      - time: 0
        value: 0
        inSlope: -1.9226694
        outSlope: -1.9226694
        tangentMode: 10
      - time: 15.733334
        value: -30.25
        inSlope: -0.57340366
        outSlope: -0.57340366
        tangentMode: 10
      - time: 22.5
        value: -25
        inSlope: 1586.812
        outSlope: 1586.812
        tangentMode: 10
      - time: 22.516666
        value: 27.88
        inSlope: 1587.3733
        outSlope: 1587.3733
        tangentMode: 10
      - time: 26.583334
        value: 35.6
        inSlope: -1.1531824
        outSlope: -1.1531824
        tangentMode: 10
      - time: 35.05
        value: 0
        inSlope: -4.204725
        outSlope: -4.204725
        tangentMode: 10
      m_PreInfinity: 2
      m_PostInfinity: 2
      m_RotationOrder: 4
    attribute: m_LocalPosition.x
    path: Fog
    classID: 4
    script: {fileID: 0}
  - curve:
      serializedVersion: 2
      m_Curve:
      - time: 0
        value: 0
        inSlope: 0
        outSlope: 0
        tangentMode: 10
      - time: 15.733334
        value: 0
        inSlope: 0
        outSlope: 0
        tangentMode: 10
      - time: 22.5
        value: 0
        inSlope: 0
        outSlope: 0
        tangentMode: 10
      - time: 22.516666
        value: 0
        inSlope: 0
        outSlope: 0
        tangentMode: 10
      - time: 26.583334
        value: 0
        inSlope: 0
        outSlope: 0
        tangentMode: 10
      - time: 35.05
        value: 0
        inSlope: 0
        outSlope: 0
        tangentMode: 10
      m_PreInfinity: 2
      m_PostInfinity: 2
      m_RotationOrder: 4
    attribute: m_LocalPosition.y
    path: Fog
    classID: 4
    script: {fileID: 0}
  - curve:
      serializedVersion: 2
      m_Curve:
      - time: 0
        value: 0
        inSlope: 0
        outSlope: 0
        tangentMode: 10
      - time: 15.733334
        value: 0
        inSlope: 0
        outSlope: 0
        tangentMode: 10
      - time: 22.5
        value: 0
        inSlope: 0
        outSlope: 0
        tangentMode: 10
      - time: 22.516666
        value: 0
        inSlope: 0
        outSlope: 0
        tangentMode: 10
      - time: 26.583334
        value: 0
        inSlope: 0
        outSlope: 0
        tangentMode: 10
      - time: 35.05
        value: 0
        inSlope: 0
        outSlope: 0
        tangentMode: 10
      m_PreInfinity: 2
      m_PostInfinity: 2
      m_RotationOrder: 4
    attribute: m_LocalPosition.z
    path: Fog
    classID: 4
    script: {fileID: 0}
  - curve:
      serializedVersion: 2
      m_Curve:
      - time: 0
        value: 1
        inSlope: Infinity
        outSlope: Infinity
        tangentMode: 31
      - time: 22.5
        value: 0
        inSlope: Infinity
        outSlope: Infinity
        tangentMode: 31
      - time: 26.583334
        value: 1
        inSlope: Infinity
        outSlope: Infinity
        tangentMode: 31
      - time: 35.05
        value: 1
        inSlope: Infinity
        outSlope: Infinity
        tangentMode: 31
      m_PreInfinity: 2
      m_PostInfinity: 2
      m_RotationOrder: 4
    attribute: m_Enabled
    path: Fog
    classID: 212
    script: {fileID: 0}
  - curve:
      serializedVersion: 2
      m_Curve:
      - time: 0
        value: 12.5
        inSlope: -1.8168888
        outSlope: -1.8168888
        tangentMode: 10
      - time: 22.5
        value: -28.38
        inSlope: 2.413184
        outSlope: 2.413184
        tangentMode: 10
      - time: 29.666666
        value: 19.23
        inSlope: 2.6965508
        outSlope: 2.6965508
        tangentMode: 10
      - time: 35.05
        value: 12.5
        inSlope: -1.2501547
        outSlope: -1.2501547
        tangentMode: 10
      m_PreInfinity: 2
      m_PostInfinity: 2
      m_RotationOrder: 4
    attribute: m_LocalPosition.x
    path: Fog (1)
    classID: 4
    script: {fileID: 0}
  - curve:
      serializedVersion: 2
      m_Curve:
      - time: 0
        value: 0
        inSlope: 0
        outSlope: 0
        tangentMode: 10
      - time: 22.5
        value: 0
        inSlope: 0
        outSlope: 0
        tangentMode: 10
      - time: 29.666666
        value: 0
        inSlope: 0
        outSlope: 0
        tangentMode: 10
      - time: 35.05
        value: 0
        inSlope: 0
        outSlope: 0
        tangentMode: 10
      m_PreInfinity: 2
      m_PostInfinity: 2
      m_RotationOrder: 4
    attribute: m_LocalPosition.y
    path: Fog (1)
    classID: 4
    script: {fileID: 0}
  - curve:
      serializedVersion: 2
      m_Curve:
      - time: 0
        value: 0
        inSlope: 0
        outSlope: 0
        tangentMode: 10
      - time: 22.5
        value: 0
        inSlope: 0
        outSlope: 0
        tangentMode: 10
      - time: 29.666666
        value: 0
        inSlope: 0
        outSlope: 0
        tangentMode: 10
      - time: 35.05
        value: 0
        inSlope: 0
        outSlope: 0
        tangentMode: 10
      m_PreInfinity: 2
      m_PostInfinity: 2
      m_RotationOrder: 4
    attribute: m_LocalPosition.z
    path: Fog (1)
    classID: 4
    script: {fileID: 0}
  - curve:
      serializedVersion: 2
      m_Curve:
      - time: 0
        value: 1
        inSlope: Infinity
        outSlope: Infinity
        tangentMode: 31
      - time: 15.75
        value: 1
        inSlope: Infinity
        outSlope: Infinity
        tangentMode: 31
      - time: 18.3
        value: 0
        inSlope: Infinity
        outSlope: Infinity
        tangentMode: 31
      - time: 29.666666
        value: 0
        inSlope: Infinity
        outSlope: Infinity
        tangentMode: 31
      - time: 29.7
        value: 0
        inSlope: Infinity
        outSlope: Infinity
        tangentMode: 31
      - time: 32.3
        value: 1
        inSlope: Infinity
        outSlope: Infinity
        tangentMode: 31
      - time: 35.05
        value: 1
        inSlope: Infinity
        outSlope: Infinity
        tangentMode: 31
      m_PreInfinity: 2
      m_PostInfinity: 2
      m_RotationOrder: 4
    attribute: m_Enabled
    path: Fog (1)
    classID: 212
    script: {fileID: 0}
  - curve:
      serializedVersion: 2
      m_Curve:
      - time: 0
        value: 30.52
        inSlope: -2.0897017
        outSlope: -2.0897017
        tangentMode: 10
      - time: 29.616667
        value: -31.37
        inSlope: 0.002319336
        outSlope: 0.002319336
        tangentMode: 10
      - time: 32.266666
        value: -25.82
        inSlope: 11.168131
        outSlope: 11.168131
        tangentMode: 10
      - time: 35.05
        value: 30.52
        inSlope: 20.24192
        outSlope: 20.24192
        tangentMode: 10
      m_PreInfinity: 2
      m_PostInfinity: 2
      m_RotationOrder: 4
    attribute: m_LocalPosition.x
    path: Fog (2)
    classID: 4
    script: {fileID: 0}
  - curve:
      serializedVersion: 2
      m_Curve:
      - time: 0
        value: 0
        inSlope: 0
        outSlope: 0
        tangentMode: 10
      - time: 29.616667
        value: 0
        inSlope: 0
        outSlope: 0
        tangentMode: 10
      - time: 32.266666
        value: 0
        inSlope: 0
        outSlope: 0
        tangentMode: 10
      - time: 35.05
        value: 0
        inSlope: 0
        outSlope: 0
        tangentMode: 10
      m_PreInfinity: 2
      m_PostInfinity: 2
      m_RotationOrder: 4
    attribute: m_LocalPosition.y
    path: Fog (2)
    classID: 4
    script: {fileID: 0}
  - curve:
      serializedVersion: 2
      m_Curve:
      - time: 0
        value: 0
        inSlope: 0
        outSlope: 0
        tangentMode: 10
      - time: 29.616667
        value: 0
        inSlope: 0
        outSlope: 0
        tangentMode: 10
      - time: 32.266666
        value: 0
        inSlope: 0
        outSlope: 0
        tangentMode: 10
      - time: 35.05
        value: 0
        inSlope: 0
        outSlope: 0
        tangentMode: 10
      m_PreInfinity: 2
      m_PostInfinity: 2
      m_RotationOrder: 4
    attribute: m_LocalPosition.z
    path: Fog (2)
    classID: 4
    script: {fileID: 0}
  - curve:
      serializedVersion: 2
      m_Curve:
      - time: 0
        value: 1
        inSlope: Infinity
        outSlope: Infinity
        tangentMode: 31
      - time: 29.633333
        value: 0
        inSlope: Infinity
        outSlope: Infinity
        tangentMode: 31
      - time: 35.033333
        value: 1
        inSlope: Infinity
        outSlope: Infinity
        tangentMode: 31
      - time: 35.05
        value: 1
        inSlope: Infinity
        outSlope: Infinity
        tangentMode: 31
      m_PreInfinity: 2
      m_PostInfinity: 2
      m_RotationOrder: 4
    attribute: m_Enabled
    path: Fog (2)
    classID: 212
    script: {fileID: 0}
  m_EulerEditorCurves: []
  m_HasGenericRootTransform: 0
  m_HasMotionFloatCurves: 0
  m_GenerateMotionCurves: 0
  m_Events: []
